%YAML 1.1
%TAG !u! tag:unity3d.com,2011:
--- !u!1 &1003487002537616331
GameObject:
  m_ObjectHideFlags: 0
  m_CorrespondingSourceObject: {fileID: 0}
  m_PrefabInstance: {fileID: 0}
  m_PrefabAsset: {fileID: 0}
  serializedVersion: 6
  m_Component:
  - component: {fileID: 4464094868968271540}
  - component: {fileID: 5307418344129685913}
  - component: {fileID: 1502943408875258352}
  m_Layer: 0
  m_Name: Layer1
  m_TagString: Untagged
  m_Icon: {fileID: 0}
  m_NavMeshLayer: 0
  m_StaticEditorFlags: 0
  m_IsActive: 1
--- !u!4 &4464094868968271540
Transform:
  m_ObjectHideFlags: 0
  m_CorrespondingSourceObject: {fileID: 0}
  m_PrefabInstance: {fileID: 0}
  m_PrefabAsset: {fileID: 0}
  m_GameObject: {fileID: 1003487002537616331}
  m_LocalRotation: {x: -0, y: -0, z: -0, w: 1}
  m_LocalPosition: {x: 0, y: 0, z: 0}
  m_LocalScale: {x: 1, y: 1, z: 1}
  m_ConstrainProportionsScale: 0
  m_Children: []
  m_Father: {fileID: 6679413564894514089}
  m_RootOrder: 0
  m_LocalEulerAnglesHint: {x: 0, y: 0, z: 0}
--- !u!1839735485 &5307418344129685913
Tilemap:
  m_ObjectHideFlags: 0
  m_CorrespondingSourceObject: {fileID: 0}
  m_PrefabInstance: {fileID: 0}
  m_PrefabAsset: {fileID: 0}
  m_GameObject: {fileID: 1003487002537616331}
  m_Enabled: 1
  m_Tiles:
  - first: {x: -2, y: -8, z: 0}
    second:
      serializedVersion: 2
      m_TileIndex: 178
      m_TileSpriteIndex: 178
      m_TileMatrixIndex: 0
      m_TileColorIndex: 0
      m_TileObjectToInstantiateIndex: 65535
      dummyAlignment: 0
      m_AllTileFlags: 1073741825
  - first: {x: -1, y: -8, z: 0}
    second:
      serializedVersion: 2
      m_TileIndex: 179
      m_TileSpriteIndex: 179
      m_TileMatrixIndex: 0
      m_TileColorIndex: 0
      m_TileObjectToInstantiateIndex: 65535
      dummyAlignment: 0
      m_AllTileFlags: 1073741825
  - first: {x: 0, y: -8, z: 0}
    second:
      serializedVersion: 2
      m_TileIndex: 180
      m_TileSpriteIndex: 180
      m_TileMatrixIndex: 0
      m_TileColorIndex: 0
      m_TileObjectToInstantiateIndex: 65535
      dummyAlignment: 0
      m_AllTileFlags: 1073741825
  - first: {x: 1, y: -8, z: 0}
    second:
      serializedVersion: 2
      m_TileIndex: 181
      m_TileSpriteIndex: 181
      m_TileMatrixIndex: 0
      m_TileColorIndex: 0
      m_TileObjectToInstantiateIndex: 65535
      dummyAlignment: 0
      m_AllTileFlags: 1073741825
  - first: {x: -2, y: -7, z: 0}
    second:
      serializedVersion: 2
      m_TileIndex: 166
      m_TileSpriteIndex: 166
      m_TileMatrixIndex: 0
      m_TileColorIndex: 0
      m_TileObjectToInstantiateIndex: 65535
      dummyAlignment: 0
      m_AllTileFlags: 1073741825
  - first: {x: -1, y: -7, z: 0}
    second:
      serializedVersion: 2
      m_TileIndex: 167
      m_TileSpriteIndex: 167
      m_TileMatrixIndex: 0
      m_TileColorIndex: 0
      m_TileObjectToInstantiateIndex: 65535
      dummyAlignment: 0
      m_AllTileFlags: 1073741825
  - first: {x: 0, y: -7, z: 0}
    second:
      serializedVersion: 2
      m_TileIndex: 168
      m_TileSpriteIndex: 168
      m_TileMatrixIndex: 0
      m_TileColorIndex: 0
      m_TileObjectToInstantiateIndex: 65535
      dummyAlignment: 0
      m_AllTileFlags: 1073741825
  - first: {x: 1, y: -7, z: 0}
    second:
      serializedVersion: 2
      m_TileIndex: 169
      m_TileSpriteIndex: 169
      m_TileMatrixIndex: 0
      m_TileColorIndex: 0
      m_TileObjectToInstantiateIndex: 65535
      dummyAlignment: 0
      m_AllTileFlags: 1073741825
  - first: {x: 2, y: -7, z: 0}
    second:
      serializedVersion: 2
      m_TileIndex: 170
      m_TileSpriteIndex: 170
      m_TileMatrixIndex: 0
      m_TileColorIndex: 0
      m_TileObjectToInstantiateIndex: 65535
      dummyAlignment: 0
      m_AllTileFlags: 1073741825
  - first: {x: 3, y: -7, z: 0}
    second:
      serializedVersion: 2
      m_TileIndex: 171
      m_TileSpriteIndex: 171
      m_TileMatrixIndex: 0
      m_TileColorIndex: 0
      m_TileObjectToInstantiateIndex: 65535
      dummyAlignment: 0
      m_AllTileFlags: 1073741825
  - first: {x: 4, y: -7, z: 0}
    second:
      serializedVersion: 2
      m_TileIndex: 172
      m_TileSpriteIndex: 172
      m_TileMatrixIndex: 0
      m_TileColorIndex: 0
      m_TileObjectToInstantiateIndex: 65535
      dummyAlignment: 0
      m_AllTileFlags: 1073741825
  - first: {x: 5, y: -7, z: 0}
    second:
      serializedVersion: 2
      m_TileIndex: 173
      m_TileSpriteIndex: 173
      m_TileMatrixIndex: 0
      m_TileColorIndex: 0
      m_TileObjectToInstantiateIndex: 65535
      dummyAlignment: 0
      m_AllTileFlags: 1073741825
  - first: {x: 6, y: -7, z: 0}
    second:
      serializedVersion: 2
      m_TileIndex: 174
      m_TileSpriteIndex: 174
      m_TileMatrixIndex: 0
      m_TileColorIndex: 0
      m_TileObjectToInstantiateIndex: 65535
      dummyAlignment: 0
      m_AllTileFlags: 1073741825
  - first: {x: 8, y: -7, z: 0}
    second:
      serializedVersion: 2
      m_TileIndex: 175
      m_TileSpriteIndex: 175
      m_TileMatrixIndex: 0
      m_TileColorIndex: 0
      m_TileObjectToInstantiateIndex: 65535
      dummyAlignment: 0
      m_AllTileFlags: 1073741825
  - first: {x: 9, y: -7, z: 0}
    second:
      serializedVersion: 2
      m_TileIndex: 176
      m_TileSpriteIndex: 176
      m_TileMatrixIndex: 0
      m_TileColorIndex: 0
      m_TileObjectToInstantiateIndex: 65535
      dummyAlignment: 0
      m_AllTileFlags: 1073741825
  - first: {x: 10, y: -7, z: 0}
    second:
      serializedVersion: 2
      m_TileIndex: 177
      m_TileSpriteIndex: 177
      m_TileMatrixIndex: 0
      m_TileColorIndex: 0
      m_TileObjectToInstantiateIndex: 65535
      dummyAlignment: 0
      m_AllTileFlags: 1073741825
  - first: {x: -2, y: -6, z: 0}
    second:
      serializedVersion: 2
      m_TileIndex: 152
      m_TileSpriteIndex: 152
      m_TileMatrixIndex: 0
      m_TileColorIndex: 0
      m_TileObjectToInstantiateIndex: 65535
      dummyAlignment: 0
      m_AllTileFlags: 1073741825
  - first: {x: -1, y: -6, z: 0}
    second:
      serializedVersion: 2
      m_TileIndex: 153
      m_TileSpriteIndex: 153
      m_TileMatrixIndex: 0
      m_TileColorIndex: 0
      m_TileObjectToInstantiateIndex: 65535
      dummyAlignment: 0
      m_AllTileFlags: 1073741825
  - first: {x: 0, y: -6, z: 0}
    second:
      serializedVersion: 2
      m_TileIndex: 154
      m_TileSpriteIndex: 154
      m_TileMatrixIndex: 0
      m_TileColorIndex: 0
      m_TileObjectToInstantiateIndex: 65535
      dummyAlignment: 0
      m_AllTileFlags: 1073741825
  - first: {x: 1, y: -6, z: 0}
    second:
      serializedVersion: 2
      m_TileIndex: 155
      m_TileSpriteIndex: 155
      m_TileMatrixIndex: 0
      m_TileColorIndex: 0
      m_TileObjectToInstantiateIndex: 65535
      dummyAlignment: 0
      m_AllTileFlags: 1073741825
  - first: {x: 2, y: -6, z: 0}
    second:
      serializedVersion: 2
      m_TileIndex: 156
      m_TileSpriteIndex: 156
      m_TileMatrixIndex: 0
      m_TileColorIndex: 0
      m_TileObjectToInstantiateIndex: 65535
      dummyAlignment: 0
      m_AllTileFlags: 1073741825
  - first: {x: 3, y: -6, z: 0}
    second:
      serializedVersion: 2
      m_TileIndex: 157
      m_TileSpriteIndex: 157
      m_TileMatrixIndex: 0
      m_TileColorIndex: 0
      m_TileObjectToInstantiateIndex: 65535
      dummyAlignment: 0
      m_AllTileFlags: 1073741825
  - first: {x: 4, y: -6, z: 0}
    second:
      serializedVersion: 2
      m_TileIndex: 158
      m_TileSpriteIndex: 158
      m_TileMatrixIndex: 0
      m_TileColorIndex: 0
      m_TileObjectToInstantiateIndex: 65535
      dummyAlignment: 0
      m_AllTileFlags: 1073741825
  - first: {x: 5, y: -6, z: 0}
    second:
      serializedVersion: 2
      m_TileIndex: 159
      m_TileSpriteIndex: 159
      m_TileMatrixIndex: 0
      m_TileColorIndex: 0
      m_TileObjectToInstantiateIndex: 65535
      dummyAlignment: 0
      m_AllTileFlags: 1073741825
  - first: {x: 6, y: -6, z: 0}
    second:
      serializedVersion: 2
      m_TileIndex: 160
      m_TileSpriteIndex: 160
      m_TileMatrixIndex: 0
      m_TileColorIndex: 0
      m_TileObjectToInstantiateIndex: 65535
      dummyAlignment: 0
      m_AllTileFlags: 1073741825
  - first: {x: 14, y: -6, z: 0}
    second:
      serializedVersion: 2
      m_TileIndex: 161
      m_TileSpriteIndex: 161
      m_TileMatrixIndex: 0
      m_TileColorIndex: 0
      m_TileObjectToInstantiateIndex: 65535
      dummyAlignment: 0
      m_AllTileFlags: 1073741825
  - first: {x: 15, y: -6, z: 0}
    second:
      serializedVersion: 2
      m_TileIndex: 162
      m_TileSpriteIndex: 162
      m_TileMatrixIndex: 0
      m_TileColorIndex: 0
      m_TileObjectToInstantiateIndex: 65535
      dummyAlignment: 0
      m_AllTileFlags: 1073741825
  - first: {x: 16, y: -6, z: 0}
    second:
      serializedVersion: 2
      m_TileIndex: 163
      m_TileSpriteIndex: 163
      m_TileMatrixIndex: 0
      m_TileColorIndex: 0
      m_TileObjectToInstantiateIndex: 65535
      dummyAlignment: 0
      m_AllTileFlags: 1073741825
  - first: {x: 17, y: -6, z: 0}
    second:
      serializedVersion: 2
      m_TileIndex: 164
      m_TileSpriteIndex: 164
      m_TileMatrixIndex: 0
      m_TileColorIndex: 0
      m_TileObjectToInstantiateIndex: 65535
      dummyAlignment: 0
      m_AllTileFlags: 1073741825
  - first: {x: 18, y: -6, z: 0}
    second:
      serializedVersion: 2
      m_TileIndex: 165
      m_TileSpriteIndex: 165
      m_TileMatrixIndex: 0
      m_TileColorIndex: 0
      m_TileObjectToInstantiateIndex: 65535
      dummyAlignment: 0
      m_AllTileFlags: 1073741825
  - first: {x: -2, y: -5, z: 0}
    second:
      serializedVersion: 2
      m_TileIndex: 134
      m_TileSpriteIndex: 134
      m_TileMatrixIndex: 0
      m_TileColorIndex: 0
      m_TileObjectToInstantiateIndex: 65535
      dummyAlignment: 0
      m_AllTileFlags: 1073741825
  - first: {x: -1, y: -5, z: 0}
    second:
      serializedVersion: 2
      m_TileIndex: 135
      m_TileSpriteIndex: 135
      m_TileMatrixIndex: 0
      m_TileColorIndex: 0
      m_TileObjectToInstantiateIndex: 65535
      dummyAlignment: 0
      m_AllTileFlags: 1073741825
  - first: {x: 0, y: -5, z: 0}
    second:
      serializedVersion: 2
      m_TileIndex: 136
      m_TileSpriteIndex: 136
      m_TileMatrixIndex: 0
      m_TileColorIndex: 0
      m_TileObjectToInstantiateIndex: 65535
      dummyAlignment: 0
      m_AllTileFlags: 1073741825
  - first: {x: 1, y: -5, z: 0}
    second:
      serializedVersion: 2
      m_TileIndex: 137
      m_TileSpriteIndex: 137
      m_TileMatrixIndex: 0
      m_TileColorIndex: 0
      m_TileObjectToInstantiateIndex: 65535
      dummyAlignment: 0
      m_AllTileFlags: 1073741825
  - first: {x: 2, y: -5, z: 0}
    second:
      serializedVersion: 2
      m_TileIndex: 138
      m_TileSpriteIndex: 138
      m_TileMatrixIndex: 0
      m_TileColorIndex: 0
      m_TileObjectToInstantiateIndex: 65535
      dummyAlignment: 0
      m_AllTileFlags: 1073741825
  - first: {x: 3, y: -5, z: 0}
    second:
      serializedVersion: 2
      m_TileIndex: 139
      m_TileSpriteIndex: 139
      m_TileMatrixIndex: 0
      m_TileColorIndex: 0
      m_TileObjectToInstantiateIndex: 65535
      dummyAlignment: 0
      m_AllTileFlags: 1073741825
  - first: {x: 4, y: -5, z: 0}
    second:
      serializedVersion: 2
      m_TileIndex: 140
      m_TileSpriteIndex: 140
      m_TileMatrixIndex: 0
      m_TileColorIndex: 0
      m_TileObjectToInstantiateIndex: 65535
      dummyAlignment: 0
      m_AllTileFlags: 1073741825
  - first: {x: 5, y: -5, z: 0}
    second:
      serializedVersion: 2
      m_TileIndex: 141
      m_TileSpriteIndex: 141
      m_TileMatrixIndex: 0
      m_TileColorIndex: 0
      m_TileObjectToInstantiateIndex: 65535
      dummyAlignment: 0
      m_AllTileFlags: 1073741825
  - first: {x: 6, y: -5, z: 0}
    second:
      serializedVersion: 2
      m_TileIndex: 142
      m_TileSpriteIndex: 142
      m_TileMatrixIndex: 0
      m_TileColorIndex: 0
      m_TileObjectToInstantiateIndex: 65535
      dummyAlignment: 0
      m_AllTileFlags: 1073741825
  - first: {x: 10, y: -5, z: 0}
    second:
      serializedVersion: 2
      m_TileIndex: 143
      m_TileSpriteIndex: 143
      m_TileMatrixIndex: 0
      m_TileColorIndex: 0
      m_TileObjectToInstantiateIndex: 65535
      dummyAlignment: 0
      m_AllTileFlags: 1073741825
  - first: {x: 11, y: -5, z: 0}
    second:
      serializedVersion: 2
      m_TileIndex: 144
      m_TileSpriteIndex: 144
      m_TileMatrixIndex: 0
      m_TileColorIndex: 0
      m_TileObjectToInstantiateIndex: 65535
      dummyAlignment: 0
      m_AllTileFlags: 1073741825
  - first: {x: 12, y: -5, z: 0}
    second:
      serializedVersion: 2
      m_TileIndex: 145
      m_TileSpriteIndex: 145
      m_TileMatrixIndex: 0
      m_TileColorIndex: 0
      m_TileObjectToInstantiateIndex: 65535
      dummyAlignment: 0
      m_AllTileFlags: 1073741825
  - first: {x: 14, y: -5, z: 0}
    second:
      serializedVersion: 2
      m_TileIndex: 146
      m_TileSpriteIndex: 146
      m_TileMatrixIndex: 0
      m_TileColorIndex: 0
      m_TileObjectToInstantiateIndex: 65535
      dummyAlignment: 0
      m_AllTileFlags: 1073741825
  - first: {x: 15, y: -5, z: 0}
    second:
      serializedVersion: 2
      m_TileIndex: 147
      m_TileSpriteIndex: 147
      m_TileMatrixIndex: 0
      m_TileColorIndex: 0
      m_TileObjectToInstantiateIndex: 65535
      dummyAlignment: 0
      m_AllTileFlags: 1073741825
  - first: {x: 16, y: -5, z: 0}
    second:
      serializedVersion: 2
      m_TileIndex: 148
      m_TileSpriteIndex: 148
      m_TileMatrixIndex: 0
      m_TileColorIndex: 0
      m_TileObjectToInstantiateIndex: 65535
      dummyAlignment: 0
      m_AllTileFlags: 1073741825
  - first: {x: 17, y: -5, z: 0}
    second:
      serializedVersion: 2
      m_TileIndex: 149
      m_TileSpriteIndex: 149
      m_TileMatrixIndex: 0
      m_TileColorIndex: 0
      m_TileObjectToInstantiateIndex: 65535
      dummyAlignment: 0
      m_AllTileFlags: 1073741825
  - first: {x: 18, y: -5, z: 0}
    second:
      serializedVersion: 2
      m_TileIndex: 150
      m_TileSpriteIndex: 150
      m_TileMatrixIndex: 0
      m_TileColorIndex: 0
      m_TileObjectToInstantiateIndex: 65535
      dummyAlignment: 0
      m_AllTileFlags: 1073741825
  - first: {x: 19, y: -5, z: 0}
    second:
      serializedVersion: 2
      m_TileIndex: 151
      m_TileSpriteIndex: 151
      m_TileMatrixIndex: 0
      m_TileColorIndex: 0
      m_TileObjectToInstantiateIndex: 65535
      dummyAlignment: 0
      m_AllTileFlags: 1073741825
  - first: {x: -2, y: -4, z: 0}
    second:
      serializedVersion: 2
      m_TileIndex: 116
      m_TileSpriteIndex: 116
      m_TileMatrixIndex: 0
      m_TileColorIndex: 0
      m_TileObjectToInstantiateIndex: 65535
      dummyAlignment: 0
      m_AllTileFlags: 1073741825
  - first: {x: -1, y: -4, z: 0}
    second:
      serializedVersion: 2
      m_TileIndex: 117
      m_TileSpriteIndex: 117
      m_TileMatrixIndex: 0
      m_TileColorIndex: 0
      m_TileObjectToInstantiateIndex: 65535
      dummyAlignment: 0
      m_AllTileFlags: 1073741825
  - first: {x: 0, y: -4, z: 0}
    second:
      serializedVersion: 2
      m_TileIndex: 118
      m_TileSpriteIndex: 118
      m_TileMatrixIndex: 0
      m_TileColorIndex: 0
      m_TileObjectToInstantiateIndex: 65535
      dummyAlignment: 0
      m_AllTileFlags: 1073741825
  - first: {x: 1, y: -4, z: 0}
    second:
      serializedVersion: 2
      m_TileIndex: 119
      m_TileSpriteIndex: 119
      m_TileMatrixIndex: 0
      m_TileColorIndex: 0
      m_TileObjectToInstantiateIndex: 65535
      dummyAlignment: 0
      m_AllTileFlags: 1073741825
  - first: {x: 2, y: -4, z: 0}
    second:
      serializedVersion: 2
      m_TileIndex: 120
      m_TileSpriteIndex: 120
      m_TileMatrixIndex: 0
      m_TileColorIndex: 0
      m_TileObjectToInstantiateIndex: 65535
      dummyAlignment: 0
      m_AllTileFlags: 1073741825
  - first: {x: 3, y: -4, z: 0}
    second:
      serializedVersion: 2
      m_TileIndex: 121
      m_TileSpriteIndex: 121
      m_TileMatrixIndex: 0
      m_TileColorIndex: 0
      m_TileObjectToInstantiateIndex: 65535
      dummyAlignment: 0
      m_AllTileFlags: 1073741825
  - first: {x: 4, y: -4, z: 0}
    second:
      serializedVersion: 2
      m_TileIndex: 122
      m_TileSpriteIndex: 122
      m_TileMatrixIndex: 0
      m_TileColorIndex: 0
      m_TileObjectToInstantiateIndex: 65535
      dummyAlignment: 0
      m_AllTileFlags: 1073741825
  - first: {x: 5, y: -4, z: 0}
    second:
      serializedVersion: 2
      m_TileIndex: 123
      m_TileSpriteIndex: 123
      m_TileMatrixIndex: 0
      m_TileColorIndex: 0
      m_TileObjectToInstantiateIndex: 65535
      dummyAlignment: 0
      m_AllTileFlags: 1073741825
  - first: {x: 6, y: -4, z: 0}
    second:
      serializedVersion: 2
      m_TileIndex: 124
      m_TileSpriteIndex: 124
      m_TileMatrixIndex: 0
      m_TileColorIndex: 0
      m_TileObjectToInstantiateIndex: 65535
      dummyAlignment: 0
      m_AllTileFlags: 1073741825
  - first: {x: 8, y: -4, z: 0}
    second:
      serializedVersion: 2
      m_TileIndex: 125
      m_TileSpriteIndex: 125
      m_TileMatrixIndex: 0
      m_TileColorIndex: 0
      m_TileObjectToInstantiateIndex: 65535
      dummyAlignment: 0
      m_AllTileFlags: 1073741825
  - first: {x: 10, y: -4, z: 0}
    second:
      serializedVersion: 2
      m_TileIndex: 126
      m_TileSpriteIndex: 126
      m_TileMatrixIndex: 0
      m_TileColorIndex: 0
      m_TileObjectToInstantiateIndex: 65535
      dummyAlignment: 0
      m_AllTileFlags: 1073741825
  - first: {x: 12, y: -4, z: 0}
    second:
      serializedVersion: 2
      m_TileIndex: 127
      m_TileSpriteIndex: 127
      m_TileMatrixIndex: 0
      m_TileColorIndex: 0
      m_TileObjectToInstantiateIndex: 65535
      dummyAlignment: 0
      m_AllTileFlags: 1073741825
  - first: {x: 14, y: -4, z: 0}
    second:
      serializedVersion: 2
      m_TileIndex: 128
      m_TileSpriteIndex: 128
      m_TileMatrixIndex: 0
      m_TileColorIndex: 0
      m_TileObjectToInstantiateIndex: 65535
      dummyAlignment: 0
      m_AllTileFlags: 1073741825
  - first: {x: 15, y: -4, z: 0}
    second:
      serializedVersion: 2
      m_TileIndex: 129
      m_TileSpriteIndex: 129
      m_TileMatrixIndex: 0
      m_TileColorIndex: 0
      m_TileObjectToInstantiateIndex: 65535
      dummyAlignment: 0
      m_AllTileFlags: 1073741825
  - first: {x: 16, y: -4, z: 0}
    second:
      serializedVersion: 2
      m_TileIndex: 130
      m_TileSpriteIndex: 130
      m_TileMatrixIndex: 0
      m_TileColorIndex: 0
      m_TileObjectToInstantiateIndex: 65535
      dummyAlignment: 0
      m_AllTileFlags: 1073741825
  - first: {x: 17, y: -4, z: 0}
    second:
      serializedVersion: 2
      m_TileIndex: 131
      m_TileSpriteIndex: 131
      m_TileMatrixIndex: 0
      m_TileColorIndex: 0
      m_TileObjectToInstantiateIndex: 65535
      dummyAlignment: 0
      m_AllTileFlags: 1073741825
  - first: {x: 18, y: -4, z: 0}
    second:
      serializedVersion: 2
      m_TileIndex: 132
      m_TileSpriteIndex: 132
      m_TileMatrixIndex: 0
      m_TileColorIndex: 0
      m_TileObjectToInstantiateIndex: 65535
      dummyAlignment: 0
      m_AllTileFlags: 1073741825
  - first: {x: 19, y: -4, z: 0}
    second:
      serializedVersion: 2
      m_TileIndex: 133
      m_TileSpriteIndex: 133
      m_TileMatrixIndex: 0
      m_TileColorIndex: 0
      m_TileObjectToInstantiateIndex: 65535
      dummyAlignment: 0
      m_AllTileFlags: 1073741825
  - first: {x: -2, y: -3, z: 0}
    second:
      serializedVersion: 2
      m_TileIndex: 97
      m_TileSpriteIndex: 97
      m_TileMatrixIndex: 0
      m_TileColorIndex: 0
      m_TileObjectToInstantiateIndex: 65535
      dummyAlignment: 0
      m_AllTileFlags: 1073741825
  - first: {x: -1, y: -3, z: 0}
    second:
      serializedVersion: 2
      m_TileIndex: 98
      m_TileSpriteIndex: 98
      m_TileMatrixIndex: 0
      m_TileColorIndex: 0
      m_TileObjectToInstantiateIndex: 65535
      dummyAlignment: 0
      m_AllTileFlags: 1073741825
  - first: {x: 0, y: -3, z: 0}
    second:
      serializedVersion: 2
      m_TileIndex: 99
      m_TileSpriteIndex: 99
      m_TileMatrixIndex: 0
      m_TileColorIndex: 0
      m_TileObjectToInstantiateIndex: 65535
      dummyAlignment: 0
      m_AllTileFlags: 1073741825
  - first: {x: 1, y: -3, z: 0}
    second:
      serializedVersion: 2
      m_TileIndex: 100
      m_TileSpriteIndex: 100
      m_TileMatrixIndex: 0
      m_TileColorIndex: 0
      m_TileObjectToInstantiateIndex: 65535
      dummyAlignment: 0
      m_AllTileFlags: 1073741825
  - first: {x: 2, y: -3, z: 0}
    second:
      serializedVersion: 2
      m_TileIndex: 101
      m_TileSpriteIndex: 101
      m_TileMatrixIndex: 0
      m_TileColorIndex: 0
      m_TileObjectToInstantiateIndex: 65535
      dummyAlignment: 0
      m_AllTileFlags: 1073741825
  - first: {x: 3, y: -3, z: 0}
    second:
      serializedVersion: 2
      m_TileIndex: 102
      m_TileSpriteIndex: 102
      m_TileMatrixIndex: 0
      m_TileColorIndex: 0
      m_TileObjectToInstantiateIndex: 65535
      dummyAlignment: 0
      m_AllTileFlags: 1073741825
  - first: {x: 4, y: -3, z: 0}
    second:
      serializedVersion: 2
      m_TileIndex: 103
      m_TileSpriteIndex: 103
      m_TileMatrixIndex: 0
      m_TileColorIndex: 0
      m_TileObjectToInstantiateIndex: 65535
      dummyAlignment: 0
      m_AllTileFlags: 1073741825
  - first: {x: 5, y: -3, z: 0}
    second:
      serializedVersion: 2
      m_TileIndex: 104
      m_TileSpriteIndex: 104
      m_TileMatrixIndex: 0
      m_TileColorIndex: 0
      m_TileObjectToInstantiateIndex: 65535
      dummyAlignment: 0
      m_AllTileFlags: 1073741825
  - first: {x: 6, y: -3, z: 0}
    second:
      serializedVersion: 2
      m_TileIndex: 105
      m_TileSpriteIndex: 105
      m_TileMatrixIndex: 0
      m_TileColorIndex: 0
      m_TileObjectToInstantiateIndex: 65535
      dummyAlignment: 0
      m_AllTileFlags: 1073741825
  - first: {x: 8, y: -3, z: 0}
    second:
      serializedVersion: 2
      m_TileIndex: 106
      m_TileSpriteIndex: 106
      m_TileMatrixIndex: 0
      m_TileColorIndex: 0
      m_TileObjectToInstantiateIndex: 65535
      dummyAlignment: 0
      m_AllTileFlags: 1073741825
  - first: {x: 10, y: -3, z: 0}
    second:
      serializedVersion: 2
      m_TileIndex: 107
      m_TileSpriteIndex: 107
      m_TileMatrixIndex: 0
      m_TileColorIndex: 0
      m_TileObjectToInstantiateIndex: 65535
      dummyAlignment: 0
      m_AllTileFlags: 1073741825
  - first: {x: 11, y: -3, z: 0}
    second:
      serializedVersion: 2
      m_TileIndex: 108
      m_TileSpriteIndex: 108
      m_TileMatrixIndex: 0
      m_TileColorIndex: 0
      m_TileObjectToInstantiateIndex: 65535
      dummyAlignment: 0
      m_AllTileFlags: 1073741825
  - first: {x: 12, y: -3, z: 0}
    second:
      serializedVersion: 2
      m_TileIndex: 109
      m_TileSpriteIndex: 109
      m_TileMatrixIndex: 0
      m_TileColorIndex: 0
      m_TileObjectToInstantiateIndex: 65535
      dummyAlignment: 0
      m_AllTileFlags: 1073741825
  - first: {x: 14, y: -3, z: 0}
    second:
      serializedVersion: 2
      m_TileIndex: 110
      m_TileSpriteIndex: 110
      m_TileMatrixIndex: 0
      m_TileColorIndex: 0
      m_TileObjectToInstantiateIndex: 65535
      dummyAlignment: 0
      m_AllTileFlags: 1073741825
  - first: {x: 15, y: -3, z: 0}
    second:
      serializedVersion: 2
      m_TileIndex: 111
      m_TileSpriteIndex: 111
      m_TileMatrixIndex: 0
      m_TileColorIndex: 0
      m_TileObjectToInstantiateIndex: 65535
      dummyAlignment: 0
      m_AllTileFlags: 1073741825
  - first: {x: 16, y: -3, z: 0}
    second:
      serializedVersion: 2
      m_TileIndex: 112
      m_TileSpriteIndex: 112
      m_TileMatrixIndex: 0
      m_TileColorIndex: 0
      m_TileObjectToInstantiateIndex: 65535
      dummyAlignment: 0
      m_AllTileFlags: 1073741825
  - first: {x: 17, y: -3, z: 0}
    second:
      serializedVersion: 2
      m_TileIndex: 113
      m_TileSpriteIndex: 113
      m_TileMatrixIndex: 0
      m_TileColorIndex: 0
      m_TileObjectToInstantiateIndex: 65535
      dummyAlignment: 0
      m_AllTileFlags: 1073741825
  - first: {x: 18, y: -3, z: 0}
    second:
      serializedVersion: 2
      m_TileIndex: 114
      m_TileSpriteIndex: 114
      m_TileMatrixIndex: 0
      m_TileColorIndex: 0
      m_TileObjectToInstantiateIndex: 65535
      dummyAlignment: 0
      m_AllTileFlags: 1073741825
  - first: {x: 19, y: -3, z: 0}
    second:
      serializedVersion: 2
      m_TileIndex: 115
      m_TileSpriteIndex: 115
      m_TileMatrixIndex: 0
      m_TileColorIndex: 0
      m_TileObjectToInstantiateIndex: 65535
      dummyAlignment: 0
      m_AllTileFlags: 1073741825
  - first: {x: 0, y: -2, z: 0}
    second:
      serializedVersion: 2
      m_TileIndex: 90
      m_TileSpriteIndex: 90
      m_TileMatrixIndex: 0
      m_TileColorIndex: 0
      m_TileObjectToInstantiateIndex: 65535
      dummyAlignment: 0
      m_AllTileFlags: 1073741825
  - first: {x: 1, y: -2, z: 0}
    second:
      serializedVersion: 2
      m_TileIndex: 91
      m_TileSpriteIndex: 91
      m_TileMatrixIndex: 0
      m_TileColorIndex: 0
      m_TileObjectToInstantiateIndex: 65535
      dummyAlignment: 0
      m_AllTileFlags: 1073741825
  - first: {x: 6, y: -2, z: 0}
    second:
      serializedVersion: 2
      m_TileIndex: 92
      m_TileSpriteIndex: 92
      m_TileMatrixIndex: 0
      m_TileColorIndex: 0
      m_TileObjectToInstantiateIndex: 65535
      dummyAlignment: 0
      m_AllTileFlags: 1073741825
  - first: {x: 7, y: -2, z: 0}
    second:
      serializedVersion: 2
      m_TileIndex: 93
      m_TileSpriteIndex: 93
      m_TileMatrixIndex: 0
      m_TileColorIndex: 0
      m_TileObjectToInstantiateIndex: 65535
      dummyAlignment: 0
      m_AllTileFlags: 1073741825
  - first: {x: 12, y: -2, z: 0}
    second:
      serializedVersion: 2
      m_TileIndex: 94
      m_TileSpriteIndex: 94
      m_TileMatrixIndex: 0
      m_TileColorIndex: 0
      m_TileObjectToInstantiateIndex: 65535
      dummyAlignment: 0
      m_AllTileFlags: 1073741825
  - first: {x: 13, y: -2, z: 0}
    second:
      serializedVersion: 2
      m_TileIndex: 95
      m_TileSpriteIndex: 95
      m_TileMatrixIndex: 0
      m_TileColorIndex: 0
      m_TileObjectToInstantiateIndex: 65535
      dummyAlignment: 0
      m_AllTileFlags: 1073741825
  - first: {x: 14, y: -2, z: 0}
    second:
      serializedVersion: 2
      m_TileIndex: 96
      m_TileSpriteIndex: 96
      m_TileMatrixIndex: 0
      m_TileColorIndex: 0
      m_TileObjectToInstantiateIndex: 65535
      dummyAlignment: 0
      m_AllTileFlags: 1073741825
  - first: {x: -2, y: -1, z: 0}
    second:
      serializedVersion: 2
      m_TileIndex: 70
      m_TileSpriteIndex: 70
      m_TileMatrixIndex: 0
      m_TileColorIndex: 0
      m_TileObjectToInstantiateIndex: 65535
      dummyAlignment: 0
      m_AllTileFlags: 1073741825
  - first: {x: -1, y: -1, z: 0}
    second:
      serializedVersion: 2
      m_TileIndex: 71
      m_TileSpriteIndex: 71
      m_TileMatrixIndex: 0
      m_TileColorIndex: 0
      m_TileObjectToInstantiateIndex: 65535
      dummyAlignment: 0
      m_AllTileFlags: 1073741825
  - first: {x: 0, y: -1, z: 0}
    second:
      serializedVersion: 2
      m_TileIndex: 72
      m_TileSpriteIndex: 72
      m_TileMatrixIndex: 0
      m_TileColorIndex: 0
      m_TileObjectToInstantiateIndex: 65535
      dummyAlignment: 0
      m_AllTileFlags: 1073741825
  - first: {x: 1, y: -1, z: 0}
    second:
      serializedVersion: 2
      m_TileIndex: 73
      m_TileSpriteIndex: 73
      m_TileMatrixIndex: 0
      m_TileColorIndex: 0
      m_TileObjectToInstantiateIndex: 65535
      dummyAlignment: 0
      m_AllTileFlags: 1073741825
  - first: {x: 2, y: -1, z: 0}
    second:
      serializedVersion: 2
      m_TileIndex: 74
      m_TileSpriteIndex: 74
      m_TileMatrixIndex: 0
      m_TileColorIndex: 0
      m_TileObjectToInstantiateIndex: 65535
      dummyAlignment: 0
      m_AllTileFlags: 1073741825
  - first: {x: 3, y: -1, z: 0}
    second:
      serializedVersion: 2
      m_TileIndex: 75
      m_TileSpriteIndex: 75
      m_TileMatrixIndex: 0
      m_TileColorIndex: 0
      m_TileObjectToInstantiateIndex: 65535
      dummyAlignment: 0
      m_AllTileFlags: 1073741825
  - first: {x: 5, y: -1, z: 0}
    second:
      serializedVersion: 2
      m_TileIndex: 76
      m_TileSpriteIndex: 76
      m_TileMatrixIndex: 0
      m_TileColorIndex: 0
      m_TileObjectToInstantiateIndex: 65535
      dummyAlignment: 0
      m_AllTileFlags: 1073741825
  - first: {x: 6, y: -1, z: 0}
    second:
      serializedVersion: 2
      m_TileIndex: 77
      m_TileSpriteIndex: 77
      m_TileMatrixIndex: 0
      m_TileColorIndex: 0
      m_TileObjectToInstantiateIndex: 65535
      dummyAlignment: 0
      m_AllTileFlags: 1073741825
  - first: {x: 7, y: -1, z: 0}
    second:
      serializedVersion: 2
      m_TileIndex: 78
      m_TileSpriteIndex: 78
      m_TileMatrixIndex: 0
      m_TileColorIndex: 0
      m_TileObjectToInstantiateIndex: 65535
      dummyAlignment: 0
      m_AllTileFlags: 1073741825
  - first: {x: 8, y: -1, z: 0}
    second:
      serializedVersion: 2
      m_TileIndex: 79
      m_TileSpriteIndex: 79
      m_TileMatrixIndex: 0
      m_TileColorIndex: 0
      m_TileObjectToInstantiateIndex: 65535
      dummyAlignment: 0
      m_AllTileFlags: 1073741825
  - first: {x: 10, y: -1, z: 0}
    second:
      serializedVersion: 2
      m_TileIndex: 80
      m_TileSpriteIndex: 80
      m_TileMatrixIndex: 0
      m_TileColorIndex: 0
      m_TileObjectToInstantiateIndex: 65535
      dummyAlignment: 0
      m_AllTileFlags: 1073741825
  - first: {x: 11, y: -1, z: 0}
    second:
      serializedVersion: 2
      m_TileIndex: 81
      m_TileSpriteIndex: 81
      m_TileMatrixIndex: 0
      m_TileColorIndex: 0
      m_TileObjectToInstantiateIndex: 65535
      dummyAlignment: 0
      m_AllTileFlags: 1073741825
  - first: {x: 12, y: -1, z: 0}
    second:
      serializedVersion: 2
      m_TileIndex: 82
      m_TileSpriteIndex: 82
      m_TileMatrixIndex: 0
      m_TileColorIndex: 0
      m_TileObjectToInstantiateIndex: 65535
      dummyAlignment: 0
      m_AllTileFlags: 1073741825
  - first: {x: 13, y: -1, z: 0}
    second:
      serializedVersion: 2
      m_TileIndex: 83
      m_TileSpriteIndex: 83
      m_TileMatrixIndex: 0
      m_TileColorIndex: 0
      m_TileObjectToInstantiateIndex: 65535
      dummyAlignment: 0
      m_AllTileFlags: 1073741825
  - first: {x: 14, y: -1, z: 0}
    second:
      serializedVersion: 2
      m_TileIndex: 84
      m_TileSpriteIndex: 84
      m_TileMatrixIndex: 0
      m_TileColorIndex: 0
      m_TileObjectToInstantiateIndex: 65535
      dummyAlignment: 0
      m_AllTileFlags: 1073741825
  - first: {x: 15, y: -1, z: 0}
    second:
      serializedVersion: 2
      m_TileIndex: 85
      m_TileSpriteIndex: 85
      m_TileMatrixIndex: 0
      m_TileColorIndex: 0
      m_TileObjectToInstantiateIndex: 65535
      dummyAlignment: 0
      m_AllTileFlags: 1073741825
  - first: {x: 17, y: -1, z: 0}
    second:
      serializedVersion: 2
      m_TileIndex: 86
      m_TileSpriteIndex: 86
      m_TileMatrixIndex: 0
      m_TileColorIndex: 0
      m_TileObjectToInstantiateIndex: 65535
      dummyAlignment: 0
      m_AllTileFlags: 1073741825
  - first: {x: 18, y: -1, z: 0}
    second:
      serializedVersion: 2
      m_TileIndex: 87
      m_TileSpriteIndex: 87
      m_TileMatrixIndex: 0
      m_TileColorIndex: 0
      m_TileObjectToInstantiateIndex: 65535
      dummyAlignment: 0
      m_AllTileFlags: 1073741825
  - first: {x: 19, y: -1, z: 0}
    second:
      serializedVersion: 2
      m_TileIndex: 88
      m_TileSpriteIndex: 88
      m_TileMatrixIndex: 0
      m_TileColorIndex: 0
      m_TileObjectToInstantiateIndex: 65535
      dummyAlignment: 0
      m_AllTileFlags: 1073741825
  - first: {x: 20, y: -1, z: 0}
    second:
      serializedVersion: 2
      m_TileIndex: 89
      m_TileSpriteIndex: 89
      m_TileMatrixIndex: 0
      m_TileColorIndex: 0
      m_TileObjectToInstantiateIndex: 65535
      dummyAlignment: 0
      m_AllTileFlags: 1073741825
  - first: {x: -2, y: 0, z: 0}
    second:
      serializedVersion: 2
      m_TileIndex: 50
      m_TileSpriteIndex: 50
      m_TileMatrixIndex: 0
      m_TileColorIndex: 0
      m_TileObjectToInstantiateIndex: 65535
      dummyAlignment: 0
      m_AllTileFlags: 1073741825
  - first: {x: -1, y: 0, z: 0}
    second:
      serializedVersion: 2
      m_TileIndex: 51
      m_TileSpriteIndex: 51
      m_TileMatrixIndex: 0
      m_TileColorIndex: 0
      m_TileObjectToInstantiateIndex: 65535
      dummyAlignment: 0
      m_AllTileFlags: 1073741825
  - first: {x: 0, y: 0, z: 0}
    second:
      serializedVersion: 2
      m_TileIndex: 52
      m_TileSpriteIndex: 52
      m_TileMatrixIndex: 0
      m_TileColorIndex: 0
      m_TileObjectToInstantiateIndex: 65535
      dummyAlignment: 0
      m_AllTileFlags: 1073741825
  - first: {x: 1, y: 0, z: 0}
    second:
      serializedVersion: 2
      m_TileIndex: 53
      m_TileSpriteIndex: 53
      m_TileMatrixIndex: 0
      m_TileColorIndex: 0
      m_TileObjectToInstantiateIndex: 65535
      dummyAlignment: 0
      m_AllTileFlags: 1073741825
  - first: {x: 2, y: 0, z: 0}
    second:
      serializedVersion: 2
      m_TileIndex: 54
      m_TileSpriteIndex: 54
      m_TileMatrixIndex: 0
      m_TileColorIndex: 0
      m_TileObjectToInstantiateIndex: 65535
      dummyAlignment: 0
      m_AllTileFlags: 1073741825
  - first: {x: 3, y: 0, z: 0}
    second:
      serializedVersion: 2
      m_TileIndex: 55
      m_TileSpriteIndex: 55
      m_TileMatrixIndex: 0
      m_TileColorIndex: 0
      m_TileObjectToInstantiateIndex: 65535
      dummyAlignment: 0
      m_AllTileFlags: 1073741825
  - first: {x: 5, y: 0, z: 0}
    second:
      serializedVersion: 2
      m_TileIndex: 56
      m_TileSpriteIndex: 56
      m_TileMatrixIndex: 0
      m_TileColorIndex: 0
      m_TileObjectToInstantiateIndex: 65535
      dummyAlignment: 0
      m_AllTileFlags: 1073741825
  - first: {x: 6, y: 0, z: 0}
    second:
      serializedVersion: 2
      m_TileIndex: 57
      m_TileSpriteIndex: 57
      m_TileMatrixIndex: 0
      m_TileColorIndex: 0
      m_TileObjectToInstantiateIndex: 65535
      dummyAlignment: 0
      m_AllTileFlags: 1073741825
  - first: {x: 7, y: 0, z: 0}
    second:
      serializedVersion: 2
      m_TileIndex: 58
      m_TileSpriteIndex: 58
      m_TileMatrixIndex: 0
      m_TileColorIndex: 0
      m_TileObjectToInstantiateIndex: 65535
      dummyAlignment: 0
      m_AllTileFlags: 1073741825
  - first: {x: 8, y: 0, z: 0}
    second:
      serializedVersion: 2
      m_TileIndex: 59
      m_TileSpriteIndex: 59
      m_TileMatrixIndex: 0
      m_TileColorIndex: 0
      m_TileObjectToInstantiateIndex: 65535
      dummyAlignment: 0
      m_AllTileFlags: 1073741825
  - first: {x: 10, y: 0, z: 0}
    second:
      serializedVersion: 2
      m_TileIndex: 60
      m_TileSpriteIndex: 60
      m_TileMatrixIndex: 0
      m_TileColorIndex: 0
      m_TileObjectToInstantiateIndex: 65535
      dummyAlignment: 0
      m_AllTileFlags: 1073741825
  - first: {x: 11, y: 0, z: 0}
    second:
      serializedVersion: 2
      m_TileIndex: 61
      m_TileSpriteIndex: 61
      m_TileMatrixIndex: 0
      m_TileColorIndex: 0
      m_TileObjectToInstantiateIndex: 65535
      dummyAlignment: 0
      m_AllTileFlags: 1073741825
  - first: {x: 12, y: 0, z: 0}
    second:
      serializedVersion: 2
      m_TileIndex: 62
      m_TileSpriteIndex: 62
      m_TileMatrixIndex: 0
      m_TileColorIndex: 0
      m_TileObjectToInstantiateIndex: 65535
      dummyAlignment: 0
      m_AllTileFlags: 1073741825
  - first: {x: 13, y: 0, z: 0}
    second:
      serializedVersion: 2
      m_TileIndex: 63
      m_TileSpriteIndex: 63
      m_TileMatrixIndex: 0
      m_TileColorIndex: 0
      m_TileObjectToInstantiateIndex: 65535
      dummyAlignment: 0
      m_AllTileFlags: 1073741825
  - first: {x: 14, y: 0, z: 0}
    second:
      serializedVersion: 2
      m_TileIndex: 64
      m_TileSpriteIndex: 64
      m_TileMatrixIndex: 0
      m_TileColorIndex: 0
      m_TileObjectToInstantiateIndex: 65535
      dummyAlignment: 0
      m_AllTileFlags: 1073741825
  - first: {x: 15, y: 0, z: 0}
    second:
      serializedVersion: 2
      m_TileIndex: 65
      m_TileSpriteIndex: 65
      m_TileMatrixIndex: 0
      m_TileColorIndex: 0
      m_TileObjectToInstantiateIndex: 65535
      dummyAlignment: 0
      m_AllTileFlags: 1073741825
  - first: {x: 17, y: 0, z: 0}
    second:
      serializedVersion: 2
      m_TileIndex: 66
      m_TileSpriteIndex: 66
      m_TileMatrixIndex: 0
      m_TileColorIndex: 0
      m_TileObjectToInstantiateIndex: 65535
      dummyAlignment: 0
      m_AllTileFlags: 1073741825
  - first: {x: 18, y: 0, z: 0}
    second:
      serializedVersion: 2
      m_TileIndex: 67
      m_TileSpriteIndex: 67
      m_TileMatrixIndex: 0
      m_TileColorIndex: 0
      m_TileObjectToInstantiateIndex: 65535
      dummyAlignment: 0
      m_AllTileFlags: 1073741825
  - first: {x: 19, y: 0, z: 0}
    second:
      serializedVersion: 2
      m_TileIndex: 68
      m_TileSpriteIndex: 68
      m_TileMatrixIndex: 0
      m_TileColorIndex: 0
      m_TileObjectToInstantiateIndex: 65535
      dummyAlignment: 0
      m_AllTileFlags: 1073741825
  - first: {x: 20, y: 0, z: 0}
    second:
      serializedVersion: 2
      m_TileIndex: 69
      m_TileSpriteIndex: 69
      m_TileMatrixIndex: 0
      m_TileColorIndex: 0
      m_TileObjectToInstantiateIndex: 65535
      dummyAlignment: 0
      m_AllTileFlags: 1073741825
  - first: {x: -2, y: 1, z: 0}
    second:
      serializedVersion: 2
      m_TileIndex: 30
      m_TileSpriteIndex: 30
      m_TileMatrixIndex: 0
      m_TileColorIndex: 0
      m_TileObjectToInstantiateIndex: 65535
      dummyAlignment: 0
      m_AllTileFlags: 1073741825
  - first: {x: -1, y: 1, z: 0}
    second:
      serializedVersion: 2
      m_TileIndex: 31
      m_TileSpriteIndex: 31
      m_TileMatrixIndex: 0
      m_TileColorIndex: 0
      m_TileObjectToInstantiateIndex: 65535
      dummyAlignment: 0
      m_AllTileFlags: 1073741825
  - first: {x: 0, y: 1, z: 0}
    second:
      serializedVersion: 2
      m_TileIndex: 32
      m_TileSpriteIndex: 32
      m_TileMatrixIndex: 0
      m_TileColorIndex: 0
      m_TileObjectToInstantiateIndex: 65535
      dummyAlignment: 0
      m_AllTileFlags: 1073741825
  - first: {x: 1, y: 1, z: 0}
    second:
      serializedVersion: 2
      m_TileIndex: 33
      m_TileSpriteIndex: 33
      m_TileMatrixIndex: 0
      m_TileColorIndex: 0
      m_TileObjectToInstantiateIndex: 65535
      dummyAlignment: 0
      m_AllTileFlags: 1073741825
  - first: {x: 2, y: 1, z: 0}
    second:
      serializedVersion: 2
      m_TileIndex: 34
      m_TileSpriteIndex: 34
      m_TileMatrixIndex: 0
      m_TileColorIndex: 0
      m_TileObjectToInstantiateIndex: 65535
      dummyAlignment: 0
      m_AllTileFlags: 1073741825
  - first: {x: 3, y: 1, z: 0}
    second:
      serializedVersion: 2
      m_TileIndex: 35
      m_TileSpriteIndex: 35
      m_TileMatrixIndex: 0
      m_TileColorIndex: 0
      m_TileObjectToInstantiateIndex: 65535
      dummyAlignment: 0
      m_AllTileFlags: 1073741825
  - first: {x: 5, y: 1, z: 0}
    second:
      serializedVersion: 2
      m_TileIndex: 36
      m_TileSpriteIndex: 36
      m_TileMatrixIndex: 0
      m_TileColorIndex: 0
      m_TileObjectToInstantiateIndex: 65535
      dummyAlignment: 0
      m_AllTileFlags: 1073741825
  - first: {x: 6, y: 1, z: 0}
    second:
      serializedVersion: 2
      m_TileIndex: 37
      m_TileSpriteIndex: 37
      m_TileMatrixIndex: 0
      m_TileColorIndex: 0
      m_TileObjectToInstantiateIndex: 65535
      dummyAlignment: 0
      m_AllTileFlags: 1073741825
  - first: {x: 7, y: 1, z: 0}
    second:
      serializedVersion: 2
      m_TileIndex: 38
      m_TileSpriteIndex: 38
      m_TileMatrixIndex: 0
      m_TileColorIndex: 0
      m_TileObjectToInstantiateIndex: 65535
      dummyAlignment: 0
      m_AllTileFlags: 1073741825
  - first: {x: 8, y: 1, z: 0}
    second:
      serializedVersion: 2
      m_TileIndex: 39
      m_TileSpriteIndex: 39
      m_TileMatrixIndex: 0
      m_TileColorIndex: 0
      m_TileObjectToInstantiateIndex: 65535
      dummyAlignment: 0
      m_AllTileFlags: 1073741825
  - first: {x: 10, y: 1, z: 0}
    second:
      serializedVersion: 2
      m_TileIndex: 40
      m_TileSpriteIndex: 40
      m_TileMatrixIndex: 0
      m_TileColorIndex: 0
      m_TileObjectToInstantiateIndex: 65535
      dummyAlignment: 0
      m_AllTileFlags: 1073741825
  - first: {x: 11, y: 1, z: 0}
    second:
      serializedVersion: 2
      m_TileIndex: 41
      m_TileSpriteIndex: 41
      m_TileMatrixIndex: 0
      m_TileColorIndex: 0
      m_TileObjectToInstantiateIndex: 65535
      dummyAlignment: 0
      m_AllTileFlags: 1073741825
  - first: {x: 12, y: 1, z: 0}
    second:
      serializedVersion: 2
      m_TileIndex: 42
      m_TileSpriteIndex: 42
      m_TileMatrixIndex: 0
      m_TileColorIndex: 0
      m_TileObjectToInstantiateIndex: 65535
      dummyAlignment: 0
      m_AllTileFlags: 1073741825
  - first: {x: 13, y: 1, z: 0}
    second:
      serializedVersion: 2
      m_TileIndex: 43
      m_TileSpriteIndex: 43
      m_TileMatrixIndex: 0
      m_TileColorIndex: 0
      m_TileObjectToInstantiateIndex: 65535
      dummyAlignment: 0
      m_AllTileFlags: 1073741825
  - first: {x: 14, y: 1, z: 0}
    second:
      serializedVersion: 2
      m_TileIndex: 44
      m_TileSpriteIndex: 44
      m_TileMatrixIndex: 0
      m_TileColorIndex: 0
      m_TileObjectToInstantiateIndex: 65535
      dummyAlignment: 0
      m_AllTileFlags: 1073741825
  - first: {x: 15, y: 1, z: 0}
    second:
      serializedVersion: 2
      m_TileIndex: 45
      m_TileSpriteIndex: 45
      m_TileMatrixIndex: 0
      m_TileColorIndex: 0
      m_TileObjectToInstantiateIndex: 65535
      dummyAlignment: 0
      m_AllTileFlags: 1073741825
  - first: {x: 17, y: 1, z: 0}
    second:
      serializedVersion: 2
      m_TileIndex: 46
      m_TileSpriteIndex: 46
      m_TileMatrixIndex: 0
      m_TileColorIndex: 0
      m_TileObjectToInstantiateIndex: 65535
      dummyAlignment: 0
      m_AllTileFlags: 1073741825
  - first: {x: 18, y: 1, z: 0}
    second:
      serializedVersion: 2
      m_TileIndex: 47
      m_TileSpriteIndex: 47
      m_TileMatrixIndex: 0
      m_TileColorIndex: 0
      m_TileObjectToInstantiateIndex: 65535
      dummyAlignment: 0
      m_AllTileFlags: 1073741825
  - first: {x: 19, y: 1, z: 0}
    second:
      serializedVersion: 2
      m_TileIndex: 48
      m_TileSpriteIndex: 48
      m_TileMatrixIndex: 0
      m_TileColorIndex: 0
      m_TileObjectToInstantiateIndex: 65535
      dummyAlignment: 0
      m_AllTileFlags: 1073741825
  - first: {x: 20, y: 1, z: 0}
    second:
      serializedVersion: 2
      m_TileIndex: 49
      m_TileSpriteIndex: 49
      m_TileMatrixIndex: 0
      m_TileColorIndex: 0
      m_TileObjectToInstantiateIndex: 65535
      dummyAlignment: 0
      m_AllTileFlags: 1073741825
  - first: {x: -2, y: 2, z: 0}
    second:
      serializedVersion: 2
      m_TileIndex: 10
      m_TileSpriteIndex: 10
      m_TileMatrixIndex: 0
      m_TileColorIndex: 0
      m_TileObjectToInstantiateIndex: 65535
      dummyAlignment: 0
      m_AllTileFlags: 1073741825
  - first: {x: -1, y: 2, z: 0}
    second:
      serializedVersion: 2
      m_TileIndex: 11
      m_TileSpriteIndex: 11
      m_TileMatrixIndex: 0
      m_TileColorIndex: 0
      m_TileObjectToInstantiateIndex: 65535
      dummyAlignment: 0
      m_AllTileFlags: 1073741825
  - first: {x: 0, y: 2, z: 0}
    second:
      serializedVersion: 2
      m_TileIndex: 12
      m_TileSpriteIndex: 12
      m_TileMatrixIndex: 0
      m_TileColorIndex: 0
      m_TileObjectToInstantiateIndex: 65535
      dummyAlignment: 0
      m_AllTileFlags: 1073741825
  - first: {x: 1, y: 2, z: 0}
    second:
      serializedVersion: 2
      m_TileIndex: 13
      m_TileSpriteIndex: 13
      m_TileMatrixIndex: 0
      m_TileColorIndex: 0
      m_TileObjectToInstantiateIndex: 65535
      dummyAlignment: 0
      m_AllTileFlags: 1073741825
  - first: {x: 2, y: 2, z: 0}
    second:
      serializedVersion: 2
      m_TileIndex: 14
      m_TileSpriteIndex: 14
      m_TileMatrixIndex: 0
      m_TileColorIndex: 0
      m_TileObjectToInstantiateIndex: 65535
      dummyAlignment: 0
      m_AllTileFlags: 1073741825
  - first: {x: 3, y: 2, z: 0}
    second:
      serializedVersion: 2
      m_TileIndex: 15
      m_TileSpriteIndex: 15
      m_TileMatrixIndex: 0
      m_TileColorIndex: 0
      m_TileObjectToInstantiateIndex: 65535
      dummyAlignment: 0
      m_AllTileFlags: 1073741825
  - first: {x: 5, y: 2, z: 0}
    second:
      serializedVersion: 2
      m_TileIndex: 16
      m_TileSpriteIndex: 16
      m_TileMatrixIndex: 0
      m_TileColorIndex: 0
      m_TileObjectToInstantiateIndex: 65535
      dummyAlignment: 0
      m_AllTileFlags: 1073741825
  - first: {x: 6, y: 2, z: 0}
    second:
      serializedVersion: 2
      m_TileIndex: 17
      m_TileSpriteIndex: 17
      m_TileMatrixIndex: 0
      m_TileColorIndex: 0
      m_TileObjectToInstantiateIndex: 65535
      dummyAlignment: 0
      m_AllTileFlags: 1073741825
  - first: {x: 7, y: 2, z: 0}
    second:
      serializedVersion: 2
      m_TileIndex: 18
      m_TileSpriteIndex: 18
      m_TileMatrixIndex: 0
      m_TileColorIndex: 0
      m_TileObjectToInstantiateIndex: 65535
      dummyAlignment: 0
      m_AllTileFlags: 1073741825
  - first: {x: 8, y: 2, z: 0}
    second:
      serializedVersion: 2
      m_TileIndex: 19
      m_TileSpriteIndex: 19
      m_TileMatrixIndex: 0
      m_TileColorIndex: 0
      m_TileObjectToInstantiateIndex: 65535
      dummyAlignment: 0
      m_AllTileFlags: 1073741825
  - first: {x: 10, y: 2, z: 0}
    second:
      serializedVersion: 2
      m_TileIndex: 20
      m_TileSpriteIndex: 20
      m_TileMatrixIndex: 0
      m_TileColorIndex: 0
      m_TileObjectToInstantiateIndex: 65535
      dummyAlignment: 0
      m_AllTileFlags: 1073741825
  - first: {x: 11, y: 2, z: 0}
    second:
      serializedVersion: 2
      m_TileIndex: 21
      m_TileSpriteIndex: 21
      m_TileMatrixIndex: 0
      m_TileColorIndex: 0
      m_TileObjectToInstantiateIndex: 65535
      dummyAlignment: 0
      m_AllTileFlags: 1073741825
  - first: {x: 12, y: 2, z: 0}
    second:
      serializedVersion: 2
      m_TileIndex: 22
      m_TileSpriteIndex: 22
      m_TileMatrixIndex: 0
      m_TileColorIndex: 0
      m_TileObjectToInstantiateIndex: 65535
      dummyAlignment: 0
      m_AllTileFlags: 1073741825
  - first: {x: 13, y: 2, z: 0}
    second:
      serializedVersion: 2
      m_TileIndex: 23
      m_TileSpriteIndex: 23
      m_TileMatrixIndex: 0
      m_TileColorIndex: 0
      m_TileObjectToInstantiateIndex: 65535
      dummyAlignment: 0
      m_AllTileFlags: 1073741825
  - first: {x: 14, y: 2, z: 0}
    second:
      serializedVersion: 2
      m_TileIndex: 24
      m_TileSpriteIndex: 24
      m_TileMatrixIndex: 0
      m_TileColorIndex: 0
      m_TileObjectToInstantiateIndex: 65535
      dummyAlignment: 0
      m_AllTileFlags: 1073741825
  - first: {x: 15, y: 2, z: 0}
    second:
      serializedVersion: 2
      m_TileIndex: 25
      m_TileSpriteIndex: 25
      m_TileMatrixIndex: 0
      m_TileColorIndex: 0
      m_TileObjectToInstantiateIndex: 65535
      dummyAlignment: 0
      m_AllTileFlags: 1073741825
  - first: {x: 17, y: 2, z: 0}
    second:
      serializedVersion: 2
      m_TileIndex: 26
      m_TileSpriteIndex: 26
      m_TileMatrixIndex: 0
      m_TileColorIndex: 0
      m_TileObjectToInstantiateIndex: 65535
      dummyAlignment: 0
      m_AllTileFlags: 1073741825
  - first: {x: 18, y: 2, z: 0}
    second:
      serializedVersion: 2
      m_TileIndex: 27
      m_TileSpriteIndex: 27
      m_TileMatrixIndex: 0
      m_TileColorIndex: 0
      m_TileObjectToInstantiateIndex: 65535
      dummyAlignment: 0
      m_AllTileFlags: 1073741825
  - first: {x: 19, y: 2, z: 0}
    second:
      serializedVersion: 2
      m_TileIndex: 28
      m_TileSpriteIndex: 28
      m_TileMatrixIndex: 0
      m_TileColorIndex: 0
      m_TileObjectToInstantiateIndex: 65535
      dummyAlignment: 0
      m_AllTileFlags: 1073741825
  - first: {x: 20, y: 2, z: 0}
    second:
      serializedVersion: 2
      m_TileIndex: 29
      m_TileSpriteIndex: 29
      m_TileMatrixIndex: 0
      m_TileColorIndex: 0
      m_TileObjectToInstantiateIndex: 65535
      dummyAlignment: 0
      m_AllTileFlags: 1073741825
  - first: {x: -2, y: 3, z: 0}
    second:
      serializedVersion: 2
      m_TileIndex: 0
      m_TileSpriteIndex: 0
      m_TileMatrixIndex: 0
      m_TileColorIndex: 0
      m_TileObjectToInstantiateIndex: 65535
      dummyAlignment: 0
      m_AllTileFlags: 1073741825
  - first: {x: -1, y: 3, z: 0}
    second:
      serializedVersion: 2
      m_TileIndex: 1
      m_TileSpriteIndex: 1
      m_TileMatrixIndex: 0
      m_TileColorIndex: 0
      m_TileObjectToInstantiateIndex: 65535
      dummyAlignment: 0
      m_AllTileFlags: 1073741825
  - first: {x: 0, y: 3, z: 0}
    second:
      serializedVersion: 2
      m_TileIndex: 2
      m_TileSpriteIndex: 2
      m_TileMatrixIndex: 0
      m_TileColorIndex: 0
      m_TileObjectToInstantiateIndex: 65535
      dummyAlignment: 0
      m_AllTileFlags: 1073741825
  - first: {x: 1, y: 3, z: 0}
    second:
      serializedVersion: 2
      m_TileIndex: 3
      m_TileSpriteIndex: 3
      m_TileMatrixIndex: 0
      m_TileColorIndex: 0
      m_TileObjectToInstantiateIndex: 65535
      dummyAlignment: 0
      m_AllTileFlags: 1073741825
  - first: {x: 2, y: 3, z: 0}
    second:
      serializedVersion: 2
      m_TileIndex: 4
      m_TileSpriteIndex: 4
      m_TileMatrixIndex: 0
      m_TileColorIndex: 0
      m_TileObjectToInstantiateIndex: 65535
      dummyAlignment: 0
      m_AllTileFlags: 1073741825
  - first: {x: 3, y: 3, z: 0}
    second:
      serializedVersion: 2
      m_TileIndex: 5
      m_TileSpriteIndex: 5
      m_TileMatrixIndex: 0
      m_TileColorIndex: 0
      m_TileObjectToInstantiateIndex: 65535
      dummyAlignment: 0
      m_AllTileFlags: 1073741825
  - first: {x: 17, y: 3, z: 0}
    second:
      serializedVersion: 2
      m_TileIndex: 6
      m_TileSpriteIndex: 6
      m_TileMatrixIndex: 0
      m_TileColorIndex: 0
      m_TileObjectToInstantiateIndex: 65535
      dummyAlignment: 0
      m_AllTileFlags: 1073741825
  - first: {x: 18, y: 3, z: 0}
    second:
      serializedVersion: 2
      m_TileIndex: 7
      m_TileSpriteIndex: 7
      m_TileMatrixIndex: 0
      m_TileColorIndex: 0
      m_TileObjectToInstantiateIndex: 65535
      dummyAlignment: 0
      m_AllTileFlags: 1073741825
  - first: {x: 19, y: 3, z: 0}
    second:
      serializedVersion: 2
      m_TileIndex: 8
      m_TileSpriteIndex: 8
      m_TileMatrixIndex: 0
      m_TileColorIndex: 0
      m_TileObjectToInstantiateIndex: 65535
      dummyAlignment: 0
      m_AllTileFlags: 1073741825
  - first: {x: 20, y: 3, z: 0}
    second:
      serializedVersion: 2
      m_TileIndex: 9
      m_TileSpriteIndex: 9
      m_TileMatrixIndex: 0
      m_TileColorIndex: 0
      m_TileObjectToInstantiateIndex: 65535
      dummyAlignment: 0
      m_AllTileFlags: 1073741825
  m_AnimatedTiles: {}
  m_TileAssetArray:
  - m_RefCount: 1
    m_Data: {fileID: 11400000, guid: 1916472f2428bbe4384bad06014be648, type: 2}
  - m_RefCount: 1
    m_Data: {fileID: 11400000, guid: fdeb7c25e6c0d3b49821b1d59ad8dd90, type: 2}
  - m_RefCount: 1
    m_Data: {fileID: 11400000, guid: ee557e88b0c043d44819d5e9b634aab7, type: 2}
  - m_RefCount: 1
    m_Data: {fileID: 11400000, guid: 093e74926ad20bf41ae1f6f2bd10f268, type: 2}
  - m_RefCount: 1
    m_Data: {fileID: 11400000, guid: 8d2bc5954af1fda4dbcaf5fa69c97d3f, type: 2}
  - m_RefCount: 1
    m_Data: {fileID: 11400000, guid: 7c02306fd3bf9684aa4d51b61dfa22b5, type: 2}
  - m_RefCount: 1
    m_Data: {fileID: 11400000, guid: 94221455e4e72b0499b0b8616bc33608, type: 2}
  - m_RefCount: 1
    m_Data: {fileID: 11400000, guid: 464311cac7c3a4243a433f28a1f7ba88, type: 2}
  - m_RefCount: 1
    m_Data: {fileID: 11400000, guid: 5e1829a38def3f64ea01cf408d1bd042, type: 2}
  - m_RefCount: 1
    m_Data: {fileID: 11400000, guid: 05426f0fb3945cf42bcb962e52024ad8, type: 2}
  - m_RefCount: 1
    m_Data: {fileID: 11400000, guid: 3a8ad580d5344884e9e4bedf6e54e9a1, type: 2}
  - m_RefCount: 1
    m_Data: {fileID: 11400000, guid: 9f28c4e683f4d794eab095bada242887, type: 2}
  - m_RefCount: 1
    m_Data: {fileID: 11400000, guid: 10cdc9986fe5429479fd9084553f9ea1, type: 2}
  - m_RefCount: 1
    m_Data: {fileID: 11400000, guid: a1c0dbf248d90a247bdcfef3e7e28ee5, type: 2}
  - m_RefCount: 1
    m_Data: {fileID: 11400000, guid: 21cfbee34c283c648858c40fb574f223, type: 2}
  - m_RefCount: 1
    m_Data: {fileID: 11400000, guid: b471f38f9f776a448bab134d5cc78e7d, type: 2}
  - m_RefCount: 1
    m_Data: {fileID: 11400000, guid: 9f22b025694c10d4faea6277da6517a8, type: 2}
  - m_RefCount: 1
    m_Data: {fileID: 11400000, guid: f8d3b588bc5b18a4da1e24e9fbe34f6a, type: 2}
  - m_RefCount: 1
    m_Data: {fileID: 11400000, guid: c53296ade78d447479a7e3135c9c311c, type: 2}
  - m_RefCount: 1
    m_Data: {fileID: 11400000, guid: 31b3870ab4bd3c44eb030f786d88ada3, type: 2}
  - m_RefCount: 1
    m_Data: {fileID: 11400000, guid: 6ce984630b314174ea61a217c972ff4c, type: 2}
  - m_RefCount: 1
    m_Data: {fileID: 11400000, guid: 0512c3cd8494c994281e774c65bd5952, type: 2}
  - m_RefCount: 1
    m_Data: {fileID: 11400000, guid: 93097fc1cc06eef459890a2ca37c7ed8, type: 2}
  - m_RefCount: 1
    m_Data: {fileID: 11400000, guid: 7eb1b445b6cb0c149888ae7c26dc5980, type: 2}
  - m_RefCount: 1
    m_Data: {fileID: 11400000, guid: fb8b34128a2af2a4a85801994c034bff, type: 2}
  - m_RefCount: 1
    m_Data: {fileID: 11400000, guid: ecf2b87ea42211b4592d4a96630f0a1c, type: 2}
  - m_RefCount: 1
    m_Data: {fileID: 11400000, guid: 71fb127e9f3420340b63ce77e5cd3e28, type: 2}
  - m_RefCount: 1
    m_Data: {fileID: 11400000, guid: a905a9f249eac2348936154bf7dee7fd, type: 2}
  - m_RefCount: 1
    m_Data: {fileID: 11400000, guid: 22681479178205e46a4436b69780291b, type: 2}
  - m_RefCount: 1
    m_Data: {fileID: 11400000, guid: 15b4ad7f750bd4e478c141d0a241d978, type: 2}
  - m_RefCount: 1
    m_Data: {fileID: 11400000, guid: 567a971cbd249aa4d9c51a2e0529d35f, type: 2}
  - m_RefCount: 1
    m_Data: {fileID: 11400000, guid: fea2a082a34c8734a9403ea3887e90f0, type: 2}
  - m_RefCount: 1
    m_Data: {fileID: 11400000, guid: cb1ff03b7af23ef4ebbd086481447015, type: 2}
  - m_RefCount: 1
    m_Data: {fileID: 11400000, guid: 27398fe9c87e87a4fa07e1b3ef11f870, type: 2}
  - m_RefCount: 1
    m_Data: {fileID: 11400000, guid: d33f5f53c187daf408dea20a29a94e3a, type: 2}
  - m_RefCount: 1
    m_Data: {fileID: 11400000, guid: 49750802f0e9e004797894726462ce7a, type: 2}
  - m_RefCount: 1
    m_Data: {fileID: 11400000, guid: d0937bb0bfac865478c79ab8683ea0bf, type: 2}
  - m_RefCount: 1
    m_Data: {fileID: 11400000, guid: f65d922276ec44e499425ccab4a25bab, type: 2}
  - m_RefCount: 1
    m_Data: {fileID: 11400000, guid: a8971585c92270e4ea01ce566615b394, type: 2}
  - m_RefCount: 1
    m_Data: {fileID: 11400000, guid: 6afecf35a6c984344a7476c08cf90fa7, type: 2}
  - m_RefCount: 1
    m_Data: {fileID: 11400000, guid: 32399efe5d6d48445b2578094018de2d, type: 2}
  - m_RefCount: 1
    m_Data: {fileID: 11400000, guid: 374400fb2a9d6b743af3a1f2b5bf9f39, type: 2}
  - m_RefCount: 1
    m_Data: {fileID: 11400000, guid: 10ab334e0d4ca65438dbd35d6e4b4436, type: 2}
  - m_RefCount: 1
    m_Data: {fileID: 11400000, guid: 14bde207ee306574d9f5be01f62df2ea, type: 2}
  - m_RefCount: 1
    m_Data: {fileID: 11400000, guid: c8e0ca4a1a6038c4b86a96666b110e4a, type: 2}
  - m_RefCount: 1
    m_Data: {fileID: 11400000, guid: 45f84279101014c458dcb72020526220, type: 2}
  - m_RefCount: 1
    m_Data: {fileID: 11400000, guid: 81fd28b8985ee35438dce028827a0c99, type: 2}
  - m_RefCount: 1
    m_Data: {fileID: 11400000, guid: 693f5b76beb0a9f4cb6861084e962ec7, type: 2}
  - m_RefCount: 1
    m_Data: {fileID: 11400000, guid: a667d774638868049b614da4f313507c, type: 2}
  - m_RefCount: 1
    m_Data: {fileID: 11400000, guid: a0b4aff8e6a8fe34d924dd8254a331fc, type: 2}
  - m_RefCount: 1
    m_Data: {fileID: 11400000, guid: 635637ac9871e8a4d97f041efa35c5aa, type: 2}
  - m_RefCount: 1
    m_Data: {fileID: 11400000, guid: 510ccc2205d67b8429cb5ce46a4cda81, type: 2}
  - m_RefCount: 1
    m_Data: {fileID: 11400000, guid: 0c064a99d4576f74ba3073b125d52e1c, type: 2}
  - m_RefCount: 1
    m_Data: {fileID: 11400000, guid: 7f8f9f980e972ed468bc2168225d51d0, type: 2}
  - m_RefCount: 1
    m_Data: {fileID: 11400000, guid: 6b3c65b639c9096409818ec147391cbd, type: 2}
  - m_RefCount: 1
    m_Data: {fileID: 11400000, guid: 7ff7c8e0b58e9af4d96f248fe0f2926b, type: 2}
  - m_RefCount: 1
    m_Data: {fileID: 11400000, guid: 8598ead97d1ec8d40ac26e85de8b4302, type: 2}
  - m_RefCount: 1
    m_Data: {fileID: 11400000, guid: d89c45eb58b93f34e920bb67de47f800, type: 2}
  - m_RefCount: 1
    m_Data: {fileID: 11400000, guid: 728de5d8c29f92f49b671980e87a4ef9, type: 2}
  - m_RefCount: 1
    m_Data: {fileID: 11400000, guid: c5319269298f377419c1bbc8a3516ff0, type: 2}
  - m_RefCount: 1
    m_Data: {fileID: 11400000, guid: d6b38007c07c9cd4db01db70ae2161cb, type: 2}
  - m_RefCount: 1
    m_Data: {fileID: 11400000, guid: ca091501a9d492b42ab040ee10aa6a38, type: 2}
  - m_RefCount: 1
    m_Data: {fileID: 11400000, guid: 86aea5c69a5ac8c4ca6275a88ac71d64, type: 2}
  - m_RefCount: 1
    m_Data: {fileID: 11400000, guid: 993293d7706d4e0498019e2faf78189e, type: 2}
  - m_RefCount: 1
    m_Data: {fileID: 11400000, guid: 4ec86e41bc1ed0642a0851beb41292c7, type: 2}
  - m_RefCount: 1
    m_Data: {fileID: 11400000, guid: cbe15e10464883c4abcc642174a85efb, type: 2}
  - m_RefCount: 1
    m_Data: {fileID: 11400000, guid: 6b43721b7ede3854eba728cb8651b9e9, type: 2}
  - m_RefCount: 1
    m_Data: {fileID: 11400000, guid: f3d7b6ba526e77041a851588d7f0af8e, type: 2}
  - m_RefCount: 1
    m_Data: {fileID: 11400000, guid: f883a4a64916d57409c1bc15ee8984b9, type: 2}
  - m_RefCount: 1
    m_Data: {fileID: 11400000, guid: a9c4ff30ede72ac44b48b57553f3ac46, type: 2}
  - m_RefCount: 1
    m_Data: {fileID: 11400000, guid: d94411c55abcff34bbea091d5aed9df2, type: 2}
  - m_RefCount: 1
    m_Data: {fileID: 11400000, guid: 8c7f392fa623eb746bbbe7f1f15de964, type: 2}
  - m_RefCount: 1
    m_Data: {fileID: 11400000, guid: d0339c79f09212c419be34728bd77c2e, type: 2}
  - m_RefCount: 1
    m_Data: {fileID: 11400000, guid: df36e5cbfff06754fa8e3d09c4ee69d4, type: 2}
  - m_RefCount: 1
    m_Data: {fileID: 11400000, guid: a67cca266fd0c374aaf050db96aa821d, type: 2}
  - m_RefCount: 1
    m_Data: {fileID: 11400000, guid: f545f4598c3311c4485fdb01ff0792e5, type: 2}
  - m_RefCount: 1
    m_Data: {fileID: 11400000, guid: faf90df213fdffa41ae939cad487e2c9, type: 2}
  - m_RefCount: 1
    m_Data: {fileID: 11400000, guid: 3f63ab7c7504a514b8f8fd55b1e1bb55, type: 2}
  - m_RefCount: 1
    m_Data: {fileID: 11400000, guid: bb9ad0c350dddcb4f9fee0719c00c7a0, type: 2}
  - m_RefCount: 1
    m_Data: {fileID: 11400000, guid: 151fa06c0b27149488c5df58ab61cf4b, type: 2}
  - m_RefCount: 1
    m_Data: {fileID: 11400000, guid: cc9b657fadae9854c9d6e19eb2fad518, type: 2}
  - m_RefCount: 1
    m_Data: {fileID: 11400000, guid: e43d9d29247792541bc8c9339b8046e7, type: 2}
  - m_RefCount: 1
    m_Data: {fileID: 11400000, guid: 2141d83013a66fc41b1b503847db594f, type: 2}
  - m_RefCount: 1
    m_Data: {fileID: 11400000, guid: 4285558e8fa8ab14f86af58b058aa030, type: 2}
  - m_RefCount: 1
    m_Data: {fileID: 11400000, guid: eef09a5713218b64d94eeb956b0d3f09, type: 2}
  - m_RefCount: 1
    m_Data: {fileID: 11400000, guid: 26eb2da3632bcb54c9008ad2591cfeee, type: 2}
  - m_RefCount: 1
    m_Data: {fileID: 11400000, guid: 396ccc0cfd9acf143aeb7699e34387ba, type: 2}
  - m_RefCount: 1
    m_Data: {fileID: 11400000, guid: 927af4373d734ea45a60b77c1bdba1e7, type: 2}
  - m_RefCount: 1
    m_Data: {fileID: 11400000, guid: 5a228ae9bbc50364bb97b4be0cdf5db4, type: 2}
  - m_RefCount: 1
    m_Data: {fileID: 11400000, guid: 29298ce8a0c255241826f871d8ac2b25, type: 2}
  - m_RefCount: 1
    m_Data: {fileID: 11400000, guid: c624c90f32901514c9875caf64f020a5, type: 2}
  - m_RefCount: 1
    m_Data: {fileID: 11400000, guid: 116c7d52504f0374d9821a03cb123afe, type: 2}
  - m_RefCount: 1
    m_Data: {fileID: 11400000, guid: 283fc17728e86e74f81f44bd3da65a39, type: 2}
  - m_RefCount: 1
    m_Data: {fileID: 11400000, guid: d64cfcaf4ef27d048bb0120026b28caa, type: 2}
  - m_RefCount: 1
    m_Data: {fileID: 11400000, guid: 0380631b065721144a0f23ebfa1974ed, type: 2}
  - m_RefCount: 1
    m_Data: {fileID: 11400000, guid: f1416a7dd0decec499875bb9fb740e63, type: 2}
  - m_RefCount: 1
    m_Data: {fileID: 11400000, guid: d61c18c5c155f4545807b30130a6d48e, type: 2}
  - m_RefCount: 1
    m_Data: {fileID: 11400000, guid: c3ac40ecf4600ea4290cbc4af846068f, type: 2}
  - m_RefCount: 1
    m_Data: {fileID: 11400000, guid: 08f99c03339593c479aac5fae85d0b04, type: 2}
  - m_RefCount: 1
    m_Data: {fileID: 11400000, guid: 38361234d1ec52145b4eaa91f23120f9, type: 2}
  - m_RefCount: 1
    m_Data: {fileID: 11400000, guid: b73a562cbe408a446a2e2b0abdb7d80e, type: 2}
  - m_RefCount: 1
    m_Data: {fileID: 11400000, guid: eb68282f56e898e4e854942de2fed70b, type: 2}
  - m_RefCount: 1
    m_Data: {fileID: 11400000, guid: 356a1f30a8ea7824ba8a74ee83869543, type: 2}
  - m_RefCount: 1
    m_Data: {fileID: 11400000, guid: 356da7a68343551428bf08613a42f6fe, type: 2}
  - m_RefCount: 1
    m_Data: {fileID: 11400000, guid: f2f1b9e3be5b9ad43bcd4dc47d2bed93, type: 2}
  - m_RefCount: 1
    m_Data: {fileID: 11400000, guid: 9848495df7842574fa516310609f93da, type: 2}
  - m_RefCount: 1
    m_Data: {fileID: 11400000, guid: 62cf398f2d635384cac09bb3d40ad293, type: 2}
  - m_RefCount: 1
    m_Data: {fileID: 11400000, guid: a3f4c708360ba714d945fd8cd4fdf409, type: 2}
  - m_RefCount: 1
    m_Data: {fileID: 11400000, guid: 2331a6ff7f42d9f4188bda86240ac8d6, type: 2}
  - m_RefCount: 1
    m_Data: {fileID: 11400000, guid: b92058f9424293d44b1b1ff0ce1c09ac, type: 2}
  - m_RefCount: 1
    m_Data: {fileID: 11400000, guid: 057d61737d05d8c42a68cc6ab8578c54, type: 2}
  - m_RefCount: 1
    m_Data: {fileID: 11400000, guid: 97dc47a2df76b1c428faf34474f18c69, type: 2}
  - m_RefCount: 1
    m_Data: {fileID: 11400000, guid: d5d0c756bc4c4164dbfff7a48a51835c, type: 2}
  - m_RefCount: 1
    m_Data: {fileID: 11400000, guid: 8a8d71d21724656428f534c05f2b6b21, type: 2}
  - m_RefCount: 1
    m_Data: {fileID: 11400000, guid: a323e814f60fc45439cd4fee9ddd4e73, type: 2}
  - m_RefCount: 1
    m_Data: {fileID: 11400000, guid: e83644d552789464b8b7982c21c71452, type: 2}
  - m_RefCount: 1
    m_Data: {fileID: 11400000, guid: d10c0f2489d921d43a1ddca2b639c59c, type: 2}
  - m_RefCount: 1
    m_Data: {fileID: 11400000, guid: 9eb801d6b11cad942a590d32417c9f91, type: 2}
  - m_RefCount: 1
    m_Data: {fileID: 11400000, guid: 4ab3be511be59544abe5d00bee1f33ba, type: 2}
  - m_RefCount: 1
    m_Data: {fileID: 11400000, guid: d96d7e8f7b533054fba498b38d7e5a9d, type: 2}
  - m_RefCount: 1
    m_Data: {fileID: 11400000, guid: 27926fd7090e28049ab9a2331f60d397, type: 2}
  - m_RefCount: 1
    m_Data: {fileID: 11400000, guid: 23b88e420125557449cf1e707a18a0ad, type: 2}
  - m_RefCount: 1
    m_Data: {fileID: 11400000, guid: e31d2f228c94a2243a708111f26fab09, type: 2}
  - m_RefCount: 1
    m_Data: {fileID: 11400000, guid: 978ba13dab6147c4d9faf1ea14ca713a, type: 2}
  - m_RefCount: 1
    m_Data: {fileID: 11400000, guid: 99d42411bfd838b4d9e68ab61dd904f4, type: 2}
  - m_RefCount: 1
    m_Data: {fileID: 11400000, guid: 61f58b3e2331a8f4cb742cdfbfe9d62a, type: 2}
  - m_RefCount: 1
    m_Data: {fileID: 11400000, guid: d61bbbb54543c194b8ecdf6e9caa7364, type: 2}
  - m_RefCount: 1
    m_Data: {fileID: 11400000, guid: 7ec6f97636ea5354da96f8304a09965f, type: 2}
  - m_RefCount: 1
    m_Data: {fileID: 11400000, guid: 075aaa28ff8b25c40a9235612efe81a5, type: 2}
  - m_RefCount: 1
    m_Data: {fileID: 11400000, guid: cc384d48d47944b4dbccae780f8a891e, type: 2}
  - m_RefCount: 1
    m_Data: {fileID: 11400000, guid: 906a2129519c7a24fb6512502c94ead8, type: 2}
  - m_RefCount: 1
    m_Data: {fileID: 11400000, guid: dee874971db9f6543bf44858d39bfca7, type: 2}
  - m_RefCount: 1
    m_Data: {fileID: 11400000, guid: 23c1ea45582f7f34990bcc2439416484, type: 2}
  - m_RefCount: 1
    m_Data: {fileID: 11400000, guid: 7cf8d3dde0c7e9e4082adb08082e7041, type: 2}
  - m_RefCount: 1
    m_Data: {fileID: 11400000, guid: b2abac3c98c294d4facacc5ae11731dd, type: 2}
  - m_RefCount: 1
    m_Data: {fileID: 11400000, guid: c1bba23f0824e2b43977777bdb50f50d, type: 2}
  - m_RefCount: 1
    m_Data: {fileID: 11400000, guid: 0e6da1318037b0a4a9a94295cf628b46, type: 2}
  - m_RefCount: 1
    m_Data: {fileID: 11400000, guid: 03de6328b324d844da0da4f76f2623f0, type: 2}
  - m_RefCount: 1
    m_Data: {fileID: 11400000, guid: 60d0853b36b52494d9241336635912a8, type: 2}
  - m_RefCount: 1
    m_Data: {fileID: 11400000, guid: ef72a95b7ebbaf44690b28ddef4919e3, type: 2}
  - m_RefCount: 1
    m_Data: {fileID: 11400000, guid: 5d46e74210cc46949a1f290a66f359f5, type: 2}
  - m_RefCount: 1
    m_Data: {fileID: 11400000, guid: 245597a72a0701541a69b52a8df96c1d, type: 2}
  - m_RefCount: 1
    m_Data: {fileID: 11400000, guid: a8bc876f1af13bf43b03a07ecf0dc1e0, type: 2}
  - m_RefCount: 1
    m_Data: {fileID: 11400000, guid: a8039ce66c9bc2244a0bd412a68133ee, type: 2}
  - m_RefCount: 1
    m_Data: {fileID: 11400000, guid: 681d7b57de8136e45aa5eba320e11be2, type: 2}
  - m_RefCount: 1
    m_Data: {fileID: 11400000, guid: 1971366fc323ec249b54b6175a01cb8a, type: 2}
  - m_RefCount: 1
    m_Data: {fileID: 11400000, guid: bdc2601d70120064486fafa2367a0e62, type: 2}
  - m_RefCount: 1
    m_Data: {fileID: 11400000, guid: fef1c66f851129e43a4a338b2f5dee9a, type: 2}
  - m_RefCount: 1
    m_Data: {fileID: 11400000, guid: bf0eafb980f265a4d89017aa4381397b, type: 2}
  - m_RefCount: 1
    m_Data: {fileID: 11400000, guid: 5272bc8d1d7fa86439f5eb020e3f5e1b, type: 2}
  - m_RefCount: 1
    m_Data: {fileID: 11400000, guid: 65c68d764d13fe44fa64385d5d922c99, type: 2}
  - m_RefCount: 1
    m_Data: {fileID: 11400000, guid: bc9e4ff5768aee64fbfde65f07cca987, type: 2}
  - m_RefCount: 1
    m_Data: {fileID: 11400000, guid: 249228bc78af76640a37cc5aa8a0154b, type: 2}
  - m_RefCount: 1
    m_Data: {fileID: 11400000, guid: 14c582e5a60c4dd428942107389fafc1, type: 2}
  - m_RefCount: 1
    m_Data: {fileID: 11400000, guid: eb031357b2af7a246b5e484e77f25579, type: 2}
  - m_RefCount: 1
    m_Data: {fileID: 11400000, guid: 34d933dde0f3dca418115ce5e4dd8616, type: 2}
  - m_RefCount: 1
    m_Data: {fileID: 11400000, guid: eeebce96bee3c65419fc142b1386880b, type: 2}
  - m_RefCount: 1
    m_Data: {fileID: 11400000, guid: f937dd43532aff0489e3605662378e6a, type: 2}
  - m_RefCount: 1
    m_Data: {fileID: 11400000, guid: 177e048a0febd6546a1ea497aa7b0c59, type: 2}
  - m_RefCount: 1
    m_Data: {fileID: 11400000, guid: 66b1b450c41243e498b76dab8161d450, type: 2}
  - m_RefCount: 1
    m_Data: {fileID: 11400000, guid: ec07e4d5c410eea4aa82776cec0d83e3, type: 2}
  - m_RefCount: 1
    m_Data: {fileID: 11400000, guid: d8f487354eb622f478762b6323e0c445, type: 2}
  - m_RefCount: 1
    m_Data: {fileID: 11400000, guid: 34059965f3258a244846cfff3a5480a5, type: 2}
  - m_RefCount: 1
    m_Data: {fileID: 11400000, guid: d25d63fc3ef7f774bb8cad716bc5bbc2, type: 2}
  - m_RefCount: 1
    m_Data: {fileID: 11400000, guid: b7918547c1bd49448a7085457f7059c1, type: 2}
  - m_RefCount: 1
    m_Data: {fileID: 11400000, guid: 1fb1af551282b8941af738e4ba714269, type: 2}
  - m_RefCount: 1
    m_Data: {fileID: 11400000, guid: da67441dc0204b14d88f2f3b16652b65, type: 2}
  - m_RefCount: 1
    m_Data: {fileID: 11400000, guid: 6a39acbe92ba7744fb0c71e928cd2f78, type: 2}
  - m_RefCount: 1
    m_Data: {fileID: 11400000, guid: ac2e4cbab023d67499d29a4d22cffeca, type: 2}
  - m_RefCount: 1
    m_Data: {fileID: 11400000, guid: d6f825cf80630574a9d8e1333b8ccf6c, type: 2}
  - m_RefCount: 1
    m_Data: {fileID: 11400000, guid: e3d9667382fd1a9478273a790087cca9, type: 2}
  - m_RefCount: 1
    m_Data: {fileID: 11400000, guid: 0bc63aa3010e2f44c9c1e2f465f08772, type: 2}
  - m_RefCount: 1
    m_Data: {fileID: 11400000, guid: c9941b37b3d5ae04babbbebf5db281f6, type: 2}
  - m_RefCount: 1
    m_Data: {fileID: 11400000, guid: 110ea25a967857648b4de9818c74df5d, type: 2}
  - m_RefCount: 1
    m_Data: {fileID: 11400000, guid: 1d7b31ee24eb3bd43b544f36bb2abeff, type: 2}
  - m_RefCount: 1
    m_Data: {fileID: 11400000, guid: 46046effaeba4024a9d5c660d72e89ab, type: 2}
  - m_RefCount: 1
    m_Data: {fileID: 11400000, guid: 9419f33ef3757ad4a8b346c53db8ab8e, type: 2}
  - m_RefCount: 1
    m_Data: {fileID: 11400000, guid: d826b44bd16d59944a341244c7cfb737, type: 2}
  - m_RefCount: 1
    m_Data: {fileID: 11400000, guid: 57adad79d99d15d46b3c46240b098246, type: 2}
  - m_RefCount: 1
    m_Data: {fileID: 11400000, guid: efed2f88e1fa5c14085d9c4581b9d7d4, type: 2}
  - m_RefCount: 1
    m_Data: {fileID: 11400000, guid: bff85322cef260f4e87f02e30c58a100, type: 2}
  - m_RefCount: 1
    m_Data: {fileID: 11400000, guid: 1e36bbd00928f674491748560c0ad2b7, type: 2}
  m_TileSpriteArray:
  - m_RefCount: 1
    m_Data: {fileID: -1878002926, guid: 66cad95ac267f724eb8b624c75f53e19, type: 3}
  - m_RefCount: 1
    m_Data: {fileID: -1217771131, guid: 66cad95ac267f724eb8b624c75f53e19, type: 3}
  - m_RefCount: 1
    m_Data: {fileID: -1604361355, guid: 66cad95ac267f724eb8b624c75f53e19, type: 3}
  - m_RefCount: 1
    m_Data: {fileID: 1589442730, guid: 66cad95ac267f724eb8b624c75f53e19, type: 3}
  - m_RefCount: 1
    m_Data: {fileID: -1774134258, guid: 66cad95ac267f724eb8b624c75f53e19, type: 3}
  - m_RefCount: 1
    m_Data: {fileID: -743040656, guid: 66cad95ac267f724eb8b624c75f53e19, type: 3}
  - m_RefCount: 1
    m_Data: {fileID: 1417923718, guid: 66cad95ac267f724eb8b624c75f53e19, type: 3}
  - m_RefCount: 1
    m_Data: {fileID: 47173083, guid: 66cad95ac267f724eb8b624c75f53e19, type: 3}
  - m_RefCount: 1
    m_Data: {fileID: -1268290976, guid: 66cad95ac267f724eb8b624c75f53e19, type: 3}
  - m_RefCount: 1
    m_Data: {fileID: 826761369, guid: 66cad95ac267f724eb8b624c75f53e19, type: 3}
  - m_RefCount: 1
    m_Data: {fileID: -1729678939, guid: 66cad95ac267f724eb8b624c75f53e19, type: 3}
  - m_RefCount: 1
    m_Data: {fileID: 61701318, guid: 66cad95ac267f724eb8b624c75f53e19, type: 3}
  - m_RefCount: 1
    m_Data: {fileID: -1888383619, guid: 66cad95ac267f724eb8b624c75f53e19, type: 3}
  - m_RefCount: 1
    m_Data: {fileID: 867819143, guid: 66cad95ac267f724eb8b624c75f53e19, type: 3}
  - m_RefCount: 1
    m_Data: {fileID: 317119564, guid: 66cad95ac267f724eb8b624c75f53e19, type: 3}
  - m_RefCount: 1
    m_Data: {fileID: -902891938, guid: 66cad95ac267f724eb8b624c75f53e19, type: 3}
  - m_RefCount: 1
    m_Data: {fileID: 741157151, guid: 66cad95ac267f724eb8b624c75f53e19, type: 3}
  - m_RefCount: 1
    m_Data: {fileID: 1624901456, guid: 66cad95ac267f724eb8b624c75f53e19, type: 3}
  - m_RefCount: 1
    m_Data: {fileID: -518469171, guid: 66cad95ac267f724eb8b624c75f53e19, type: 3}
  - m_RefCount: 1
    m_Data: {fileID: 965661742, guid: 66cad95ac267f724eb8b624c75f53e19, type: 3}
  - m_RefCount: 1
    m_Data: {fileID: -2089327193, guid: 66cad95ac267f724eb8b624c75f53e19, type: 3}
  - m_RefCount: 1
    m_Data: {fileID: -1345978824, guid: 66cad95ac267f724eb8b624c75f53e19, type: 3}
  - m_RefCount: 1
    m_Data: {fileID: 2005903964, guid: 66cad95ac267f724eb8b624c75f53e19, type: 3}
  - m_RefCount: 1
    m_Data: {fileID: 1729471873, guid: 66cad95ac267f724eb8b624c75f53e19, type: 3}
  - m_RefCount: 1
    m_Data: {fileID: -26772530, guid: 66cad95ac267f724eb8b624c75f53e19, type: 3}
  - m_RefCount: 1
    m_Data: {fileID: 2064490234, guid: 66cad95ac267f724eb8b624c75f53e19, type: 3}
  - m_RefCount: 1
    m_Data: {fileID: 1198959400, guid: 66cad95ac267f724eb8b624c75f53e19, type: 3}
  - m_RefCount: 1
    m_Data: {fileID: 60979163, guid: 66cad95ac267f724eb8b624c75f53e19, type: 3}
  - m_RefCount: 1
    m_Data: {fileID: -1518557432, guid: 66cad95ac267f724eb8b624c75f53e19, type: 3}
  - m_RefCount: 1
    m_Data: {fileID: -1367417462, guid: 66cad95ac267f724eb8b624c75f53e19, type: 3}
  - m_RefCount: 1
    m_Data: {fileID: -883487806, guid: 66cad95ac267f724eb8b624c75f53e19, type: 3}
  - m_RefCount: 1
    m_Data: {fileID: 1715763211, guid: 66cad95ac267f724eb8b624c75f53e19, type: 3}
  - m_RefCount: 1
    m_Data: {fileID: 1484946122, guid: 66cad95ac267f724eb8b624c75f53e19, type: 3}
  - m_RefCount: 1
    m_Data: {fileID: -248083701, guid: 66cad95ac267f724eb8b624c75f53e19, type: 3}
  - m_RefCount: 1
    m_Data: {fileID: -1658390927, guid: 66cad95ac267f724eb8b624c75f53e19, type: 3}
  - m_RefCount: 1
    m_Data: {fileID: -676792472, guid: 66cad95ac267f724eb8b624c75f53e19, type: 3}
  - m_RefCount: 1
    m_Data: {fileID: -1361691443, guid: 66cad95ac267f724eb8b624c75f53e19, type: 3}
  - m_RefCount: 1
    m_Data: {fileID: 1139125093, guid: 66cad95ac267f724eb8b624c75f53e19, type: 3}
  - m_RefCount: 1
    m_Data: {fileID: 856498844, guid: 66cad95ac267f724eb8b624c75f53e19, type: 3}
  - m_RefCount: 1
    m_Data: {fileID: -93135866, guid: 66cad95ac267f724eb8b624c75f53e19, type: 3}
  - m_RefCount: 1
    m_Data: {fileID: 829707665, guid: 66cad95ac267f724eb8b624c75f53e19, type: 3}
  - m_RefCount: 1
    m_Data: {fileID: 2031827407, guid: 66cad95ac267f724eb8b624c75f53e19, type: 3}
  - m_RefCount: 1
    m_Data: {fileID: -1384164976, guid: 66cad95ac267f724eb8b624c75f53e19, type: 3}
  - m_RefCount: 1
    m_Data: {fileID: -2132152945, guid: 66cad95ac267f724eb8b624c75f53e19, type: 3}
  - m_RefCount: 1
    m_Data: {fileID: -836073308, guid: 66cad95ac267f724eb8b624c75f53e19, type: 3}
  - m_RefCount: 1
    m_Data: {fileID: 1575711028, guid: 66cad95ac267f724eb8b624c75f53e19, type: 3}
  - m_RefCount: 1
    m_Data: {fileID: -158904404, guid: 66cad95ac267f724eb8b624c75f53e19, type: 3}
  - m_RefCount: 1
    m_Data: {fileID: -1097711874, guid: 66cad95ac267f724eb8b624c75f53e19, type: 3}
  - m_RefCount: 1
    m_Data: {fileID: 1770890232, guid: 66cad95ac267f724eb8b624c75f53e19, type: 3}
  - m_RefCount: 1
    m_Data: {fileID: 1736717841, guid: 66cad95ac267f724eb8b624c75f53e19, type: 3}
  - m_RefCount: 1
    m_Data: {fileID: 75888305, guid: 66cad95ac267f724eb8b624c75f53e19, type: 3}
  - m_RefCount: 1
    m_Data: {fileID: 296527293, guid: 66cad95ac267f724eb8b624c75f53e19, type: 3}
  - m_RefCount: 1
    m_Data: {fileID: 654432226, guid: 66cad95ac267f724eb8b624c75f53e19, type: 3}
  - m_RefCount: 1
    m_Data: {fileID: 875120764, guid: 66cad95ac267f724eb8b624c75f53e19, type: 3}
  - m_RefCount: 1
    m_Data: {fileID: -861508830, guid: 66cad95ac267f724eb8b624c75f53e19, type: 3}
  - m_RefCount: 1
    m_Data: {fileID: 2013458541, guid: 66cad95ac267f724eb8b624c75f53e19, type: 3}
  - m_RefCount: 1
    m_Data: {fileID: -320296539, guid: 66cad95ac267f724eb8b624c75f53e19, type: 3}
  - m_RefCount: 1
    m_Data: {fileID: -153554329, guid: 66cad95ac267f724eb8b624c75f53e19, type: 3}
  - m_RefCount: 1
    m_Data: {fileID: 1109436235, guid: 66cad95ac267f724eb8b624c75f53e19, type: 3}
  - m_RefCount: 1
    m_Data: {fileID: -1134818738, guid: 66cad95ac267f724eb8b624c75f53e19, type: 3}
  - m_RefCount: 1
    m_Data: {fileID: -2138171653, guid: 66cad95ac267f724eb8b624c75f53e19, type: 3}
  - m_RefCount: 1
    m_Data: {fileID: -819142119, guid: 66cad95ac267f724eb8b624c75f53e19, type: 3}
  - m_RefCount: 1
    m_Data: {fileID: -1186785675, guid: 66cad95ac267f724eb8b624c75f53e19, type: 3}
  - m_RefCount: 1
    m_Data: {fileID: 1053398418, guid: 66cad95ac267f724eb8b624c75f53e19, type: 3}
  - m_RefCount: 1
    m_Data: {fileID: 655437749, guid: 66cad95ac267f724eb8b624c75f53e19, type: 3}
  - m_RefCount: 1
    m_Data: {fileID: -1255043890, guid: 66cad95ac267f724eb8b624c75f53e19, type: 3}
  - m_RefCount: 1
    m_Data: {fileID: -943818593, guid: 66cad95ac267f724eb8b624c75f53e19, type: 3}
  - m_RefCount: 1
    m_Data: {fileID: -1546362019, guid: 66cad95ac267f724eb8b624c75f53e19, type: 3}
  - m_RefCount: 1
    m_Data: {fileID: -475519723, guid: 66cad95ac267f724eb8b624c75f53e19, type: 3}
  - m_RefCount: 1
    m_Data: {fileID: 1513803653, guid: 66cad95ac267f724eb8b624c75f53e19, type: 3}
  - m_RefCount: 1
    m_Data: {fileID: 356943431, guid: 66cad95ac267f724eb8b624c75f53e19, type: 3}
  - m_RefCount: 1
    m_Data: {fileID: 442415819, guid: 66cad95ac267f724eb8b624c75f53e19, type: 3}
  - m_RefCount: 1
    m_Data: {fileID: -1481085595, guid: 66cad95ac267f724eb8b624c75f53e19, type: 3}
  - m_RefCount: 1
    m_Data: {fileID: 1284459288, guid: 66cad95ac267f724eb8b624c75f53e19, type: 3}
  - m_RefCount: 1
    m_Data: {fileID: -229501487, guid: 66cad95ac267f724eb8b624c75f53e19, type: 3}
  - m_RefCount: 1
    m_Data: {fileID: -1507853472, guid: 66cad95ac267f724eb8b624c75f53e19, type: 3}
  - m_RefCount: 1
    m_Data: {fileID: -1027228662, guid: 66cad95ac267f724eb8b624c75f53e19, type: 3}
  - m_RefCount: 1
    m_Data: {fileID: -1765317019, guid: 66cad95ac267f724eb8b624c75f53e19, type: 3}
  - m_RefCount: 1
    m_Data: {fileID: 954219452, guid: 66cad95ac267f724eb8b624c75f53e19, type: 3}
  - m_RefCount: 1
    m_Data: {fileID: 1886739406, guid: 66cad95ac267f724eb8b624c75f53e19, type: 3}
  - m_RefCount: 1
    m_Data: {fileID: 1096356621, guid: 66cad95ac267f724eb8b624c75f53e19, type: 3}
  - m_RefCount: 1
    m_Data: {fileID: 2136937053, guid: 66cad95ac267f724eb8b624c75f53e19, type: 3}
  - m_RefCount: 1
    m_Data: {fileID: -767572473, guid: 66cad95ac267f724eb8b624c75f53e19, type: 3}
  - m_RefCount: 1
    m_Data: {fileID: -893752880, guid: 66cad95ac267f724eb8b624c75f53e19, type: 3}
  - m_RefCount: 1
    m_Data: {fileID: 1296428050, guid: 66cad95ac267f724eb8b624c75f53e19, type: 3}
  - m_RefCount: 1
    m_Data: {fileID: 1375121143, guid: 66cad95ac267f724eb8b624c75f53e19, type: 3}
  - m_RefCount: 1
    m_Data: {fileID: -420159906, guid: 66cad95ac267f724eb8b624c75f53e19, type: 3}
  - m_RefCount: 1
    m_Data: {fileID: 61613876, guid: 66cad95ac267f724eb8b624c75f53e19, type: 3}
  - m_RefCount: 1
    m_Data: {fileID: 974961369, guid: 66cad95ac267f724eb8b624c75f53e19, type: 3}
  - m_RefCount: 1
    m_Data: {fileID: -1406680044, guid: 66cad95ac267f724eb8b624c75f53e19, type: 3}
  - m_RefCount: 1
    m_Data: {fileID: 260728267, guid: 66cad95ac267f724eb8b624c75f53e19, type: 3}
  - m_RefCount: 1
    m_Data: {fileID: -1463887758, guid: 66cad95ac267f724eb8b624c75f53e19, type: 3}
  - m_RefCount: 1
    m_Data: {fileID: 921590719, guid: 66cad95ac267f724eb8b624c75f53e19, type: 3}
  - m_RefCount: 1
    m_Data: {fileID: -1492560373, guid: 66cad95ac267f724eb8b624c75f53e19, type: 3}
  - m_RefCount: 1
    m_Data: {fileID: 32621149, guid: 66cad95ac267f724eb8b624c75f53e19, type: 3}
  - m_RefCount: 1
    m_Data: {fileID: 1397796100, guid: 66cad95ac267f724eb8b624c75f53e19, type: 3}
  - m_RefCount: 1
    m_Data: {fileID: 229023798, guid: 66cad95ac267f724eb8b624c75f53e19, type: 3}
  - m_RefCount: 1
    m_Data: {fileID: 452716550, guid: 66cad95ac267f724eb8b624c75f53e19, type: 3}
  - m_RefCount: 1
    m_Data: {fileID: 573838111, guid: 66cad95ac267f724eb8b624c75f53e19, type: 3}
  - m_RefCount: 1
    m_Data: {fileID: 522392682, guid: 66cad95ac267f724eb8b624c75f53e19, type: 3}
  - m_RefCount: 1
    m_Data: {fileID: 792580616, guid: 66cad95ac267f724eb8b624c75f53e19, type: 3}
  - m_RefCount: 1
    m_Data: {fileID: 105146086, guid: 66cad95ac267f724eb8b624c75f53e19, type: 3}
  - m_RefCount: 1
    m_Data: {fileID: 569201572, guid: 66cad95ac267f724eb8b624c75f53e19, type: 3}
  - m_RefCount: 1
    m_Data: {fileID: -722464659, guid: 66cad95ac267f724eb8b624c75f53e19, type: 3}
  - m_RefCount: 1
    m_Data: {fileID: 694452888, guid: 66cad95ac267f724eb8b624c75f53e19, type: 3}
  - m_RefCount: 1
    m_Data: {fileID: -350663168, guid: 66cad95ac267f724eb8b624c75f53e19, type: 3}
  - m_RefCount: 1
    m_Data: {fileID: -1634513839, guid: 66cad95ac267f724eb8b624c75f53e19, type: 3}
  - m_RefCount: 1
    m_Data: {fileID: 1026729568, guid: 66cad95ac267f724eb8b624c75f53e19, type: 3}
  - m_RefCount: 1
    m_Data: {fileID: -248912752, guid: 66cad95ac267f724eb8b624c75f53e19, type: 3}
  - m_RefCount: 1
    m_Data: {fileID: -791681380, guid: 66cad95ac267f724eb8b624c75f53e19, type: 3}
  - m_RefCount: 1
    m_Data: {fileID: 1704763425, guid: 66cad95ac267f724eb8b624c75f53e19, type: 3}
  - m_RefCount: 1
    m_Data: {fileID: -1679716856, guid: 66cad95ac267f724eb8b624c75f53e19, type: 3}
  - m_RefCount: 1
    m_Data: {fileID: -1222411829, guid: 66cad95ac267f724eb8b624c75f53e19, type: 3}
  - m_RefCount: 1
    m_Data: {fileID: -212588656, guid: 66cad95ac267f724eb8b624c75f53e19, type: 3}
  - m_RefCount: 1
    m_Data: {fileID: 2068554867, guid: 66cad95ac267f724eb8b624c75f53e19, type: 3}
  - m_RefCount: 1
    m_Data: {fileID: 2046928405, guid: 66cad95ac267f724eb8b624c75f53e19, type: 3}
  - m_RefCount: 1
    m_Data: {fileID: 1503768659, guid: 66cad95ac267f724eb8b624c75f53e19, type: 3}
  - m_RefCount: 1
    m_Data: {fileID: -1602108949, guid: 66cad95ac267f724eb8b624c75f53e19, type: 3}
  - m_RefCount: 1
    m_Data: {fileID: -952832869, guid: 66cad95ac267f724eb8b624c75f53e19, type: 3}
  - m_RefCount: 1
    m_Data: {fileID: 1602862430, guid: 66cad95ac267f724eb8b624c75f53e19, type: 3}
  - m_RefCount: 1
    m_Data: {fileID: -954793194, guid: 66cad95ac267f724eb8b624c75f53e19, type: 3}
  - m_RefCount: 1
    m_Data: {fileID: 1966853498, guid: 66cad95ac267f724eb8b624c75f53e19, type: 3}
  - m_RefCount: 1
    m_Data: {fileID: 64638935, guid: 66cad95ac267f724eb8b624c75f53e19, type: 3}
  - m_RefCount: 1
    m_Data: {fileID: -1969304468, guid: 66cad95ac267f724eb8b624c75f53e19, type: 3}
  - m_RefCount: 1
    m_Data: {fileID: -1107389840, guid: 66cad95ac267f724eb8b624c75f53e19, type: 3}
  - m_RefCount: 1
    m_Data: {fileID: -1377356540, guid: 66cad95ac267f724eb8b624c75f53e19, type: 3}
  - m_RefCount: 1
    m_Data: {fileID: 1394457689, guid: 66cad95ac267f724eb8b624c75f53e19, type: 3}
  - m_RefCount: 1
    m_Data: {fileID: -676174653, guid: 66cad95ac267f724eb8b624c75f53e19, type: 3}
  - m_RefCount: 1
    m_Data: {fileID: 567911683, guid: 66cad95ac267f724eb8b624c75f53e19, type: 3}
  - m_RefCount: 1
    m_Data: {fileID: -730558773, guid: 66cad95ac267f724eb8b624c75f53e19, type: 3}
  - m_RefCount: 1
    m_Data: {fileID: 1885358795, guid: 66cad95ac267f724eb8b624c75f53e19, type: 3}
  - m_RefCount: 1
    m_Data: {fileID: -436488718, guid: 66cad95ac267f724eb8b624c75f53e19, type: 3}
  - m_RefCount: 1
    m_Data: {fileID: 1167309829, guid: 66cad95ac267f724eb8b624c75f53e19, type: 3}
  - m_RefCount: 1
    m_Data: {fileID: 1462715492, guid: 66cad95ac267f724eb8b624c75f53e19, type: 3}
  - m_RefCount: 1
    m_Data: {fileID: 1664905871, guid: 66cad95ac267f724eb8b624c75f53e19, type: 3}
  - m_RefCount: 1
    m_Data: {fileID: -1329278351, guid: 66cad95ac267f724eb8b624c75f53e19, type: 3}
  - m_RefCount: 1
    m_Data: {fileID: -1964960618, guid: 66cad95ac267f724eb8b624c75f53e19, type: 3}
  - m_RefCount: 1
    m_Data: {fileID: 714965484, guid: 66cad95ac267f724eb8b624c75f53e19, type: 3}
  - m_RefCount: 1
    m_Data: {fileID: -1973983897, guid: 66cad95ac267f724eb8b624c75f53e19, type: 3}
  - m_RefCount: 1
    m_Data: {fileID: 471806824, guid: 66cad95ac267f724eb8b624c75f53e19, type: 3}
  - m_RefCount: 1
    m_Data: {fileID: -337126129, guid: 66cad95ac267f724eb8b624c75f53e19, type: 3}
  - m_RefCount: 1
    m_Data: {fileID: -225633157, guid: 66cad95ac267f724eb8b624c75f53e19, type: 3}
  - m_RefCount: 1
    m_Data: {fileID: -207573639, guid: 66cad95ac267f724eb8b624c75f53e19, type: 3}
  - m_RefCount: 1
    m_Data: {fileID: 1895192232, guid: 66cad95ac267f724eb8b624c75f53e19, type: 3}
  - m_RefCount: 1
    m_Data: {fileID: 954687194, guid: 66cad95ac267f724eb8b624c75f53e19, type: 3}
  - m_RefCount: 1
    m_Data: {fileID: -217049910, guid: 66cad95ac267f724eb8b624c75f53e19, type: 3}
  - m_RefCount: 1
    m_Data: {fileID: -223446283, guid: 66cad95ac267f724eb8b624c75f53e19, type: 3}
  - m_RefCount: 1
    m_Data: {fileID: -389889994, guid: 66cad95ac267f724eb8b624c75f53e19, type: 3}
  - m_RefCount: 1
    m_Data: {fileID: 1083571758, guid: 66cad95ac267f724eb8b624c75f53e19, type: 3}
  - m_RefCount: 1
    m_Data: {fileID: 1227327975, guid: 66cad95ac267f724eb8b624c75f53e19, type: 3}
  - m_RefCount: 1
    m_Data: {fileID: -2021819891, guid: 66cad95ac267f724eb8b624c75f53e19, type: 3}
  - m_RefCount: 1
    m_Data: {fileID: -428188728, guid: 66cad95ac267f724eb8b624c75f53e19, type: 3}
  - m_RefCount: 1
    m_Data: {fileID: -678487063, guid: 66cad95ac267f724eb8b624c75f53e19, type: 3}
  - m_RefCount: 1
    m_Data: {fileID: -710370733, guid: 66cad95ac267f724eb8b624c75f53e19, type: 3}
  - m_RefCount: 1
    m_Data: {fileID: 1076690677, guid: 66cad95ac267f724eb8b624c75f53e19, type: 3}
  - m_RefCount: 1
    m_Data: {fileID: 2143697139, guid: 66cad95ac267f724eb8b624c75f53e19, type: 3}
  - m_RefCount: 1
    m_Data: {fileID: 966499392, guid: 66cad95ac267f724eb8b624c75f53e19, type: 3}
  - m_RefCount: 1
    m_Data: {fileID: -1663094063, guid: 66cad95ac267f724eb8b624c75f53e19, type: 3}
  - m_RefCount: 1
    m_Data: {fileID: 334993935, guid: 66cad95ac267f724eb8b624c75f53e19, type: 3}
  - m_RefCount: 1
    m_Data: {fileID: -1915399154, guid: 66cad95ac267f724eb8b624c75f53e19, type: 3}
  - m_RefCount: 1
    m_Data: {fileID: -373276218, guid: 66cad95ac267f724eb8b624c75f53e19, type: 3}
  - m_RefCount: 1
    m_Data: {fileID: -920939403, guid: 66cad95ac267f724eb8b624c75f53e19, type: 3}
  - m_RefCount: 1
    m_Data: {fileID: 1799247978, guid: 66cad95ac267f724eb8b624c75f53e19, type: 3}
  - m_RefCount: 1
    m_Data: {fileID: 1946629740, guid: 66cad95ac267f724eb8b624c75f53e19, type: 3}
  - m_RefCount: 1
    m_Data: {fileID: -1803175481, guid: 66cad95ac267f724eb8b624c75f53e19, type: 3}
  - m_RefCount: 1
    m_Data: {fileID: 2030101918, guid: 66cad95ac267f724eb8b624c75f53e19, type: 3}
  - m_RefCount: 1
    m_Data: {fileID: -422955183, guid: 66cad95ac267f724eb8b624c75f53e19, type: 3}
  - m_RefCount: 1
    m_Data: {fileID: -1060215844, guid: 66cad95ac267f724eb8b624c75f53e19, type: 3}
  - m_RefCount: 1
    m_Data: {fileID: 1417994092, guid: 66cad95ac267f724eb8b624c75f53e19, type: 3}
  - m_RefCount: 1
    m_Data: {fileID: -1121110320, guid: 66cad95ac267f724eb8b624c75f53e19, type: 3}
  - m_RefCount: 1
    m_Data: {fileID: -1421296372, guid: 66cad95ac267f724eb8b624c75f53e19, type: 3}
  - m_RefCount: 1
    m_Data: {fileID: -731766583, guid: 66cad95ac267f724eb8b624c75f53e19, type: 3}
  - m_RefCount: 1
    m_Data: {fileID: -2007035696, guid: 66cad95ac267f724eb8b624c75f53e19, type: 3}
  - m_RefCount: 1
    m_Data: {fileID: 1208361425, guid: 66cad95ac267f724eb8b624c75f53e19, type: 3}
  - m_RefCount: 1
    m_Data: {fileID: -567102820, guid: 66cad95ac267f724eb8b624c75f53e19, type: 3}
  - m_RefCount: 1
    m_Data: {fileID: -1800746669, guid: 66cad95ac267f724eb8b624c75f53e19, type: 3}
  - m_RefCount: 1
    m_Data: {fileID: 978848019, guid: 66cad95ac267f724eb8b624c75f53e19, type: 3}
  - m_RefCount: 1
    m_Data: {fileID: 1171599431, guid: 66cad95ac267f724eb8b624c75f53e19, type: 3}
  - m_RefCount: 1
    m_Data: {fileID: 118984076, guid: 66cad95ac267f724eb8b624c75f53e19, type: 3}
  - m_RefCount: 1
    m_Data: {fileID: 613850822, guid: 66cad95ac267f724eb8b624c75f53e19, type: 3}
  - m_RefCount: 1
    m_Data: {fileID: -532089433, guid: 66cad95ac267f724eb8b624c75f53e19, type: 3}
  - m_RefCount: 1
    m_Data: {fileID: -714733988, guid: 66cad95ac267f724eb8b624c75f53e19, type: 3}
  m_TileMatrixArray:
  - m_RefCount: 182
    m_Data:
      e00: 1
      e01: 0
      e02: 0
      e03: 0
      e10: 0
      e11: 1
      e12: 0
      e13: 0
      e20: 0
      e21: 0
      e22: 1
      e23: 0
      e30: 0
      e31: 0
      e32: 0
      e33: 1
  m_TileColorArray:
  - m_RefCount: 182
    m_Data: {r: 1, g: 1, b: 1, a: 1}
  m_TileObjectToInstantiateArray: []
  m_AnimationFrameRate: 1
  m_Color: {r: 1, g: 1, b: 1, a: 1}
  m_Origin: {x: -2, y: -8, z: 0}
  m_Size: {x: 23, y: 12, z: 1}
  m_TileAnchor: {x: 0.5, y: 0.5, z: 0}
  m_TileOrientation: 0
  m_TileOrientationMatrix:
    e00: 1
    e01: 0
    e02: 0
    e03: 0
    e10: 0
    e11: 1
    e12: 0
    e13: 0
    e20: 0
    e21: 0
    e22: 1
    e23: 0
    e30: 0
    e31: 0
    e32: 0
    e33: 1
--- !u!483693784 &1502943408875258352
TilemapRenderer:
  m_ObjectHideFlags: 0
  m_CorrespondingSourceObject: {fileID: 0}
  m_PrefabInstance: {fileID: 0}
  m_PrefabAsset: {fileID: 0}
  m_GameObject: {fileID: 1003487002537616331}
  m_Enabled: 1
  m_CastShadows: 0
  m_ReceiveShadows: 0
  m_DynamicOccludee: 0
  m_StaticShadowCaster: 0
  m_MotionVectors: 1
  m_LightProbeUsage: 0
  m_ReflectionProbeUsage: 0
  m_RayTracingMode: 0
  m_RayTraceProcedural: 0
  m_RenderingLayerMask: 1
  m_RendererPriority: 0
  m_Materials:
  - {fileID: 2100000, guid: a97c105638bdf8b4a8650670310a4cd3, type: 2}
  m_StaticBatchInfo:
    firstSubMesh: 0
    subMeshCount: 0
  m_StaticBatchRoot: {fileID: 0}
  m_ProbeAnchor: {fileID: 0}
  m_LightProbeVolumeOverride: {fileID: 0}
  m_ScaleInLightmap: 1
  m_ReceiveGI: 1
  m_PreserveUVs: 0
  m_IgnoreNormalsForChartDetection: 0
  m_ImportantGI: 0
  m_StitchLightmapSeams: 1
  m_SelectedEditorRenderState: 0
  m_MinimumChartSize: 4
  m_AutoUVMaxDistance: 0.5
  m_AutoUVMaxAngle: 89
  m_LightmapParameters: {fileID: 0}
  m_SortingLayerID: 0
  m_SortingLayer: 0
  m_SortingOrder: 0
  m_ChunkSize: {x: 32, y: 32, z: 32}
  m_ChunkCullingBounds: {x: 0, y: 0, z: 0}
  m_MaxChunkCount: 16
  m_MaxFrameAge: 16
  m_SortOrder: 0
  m_Mode: 0
  m_DetectChunkCullingBounds: 0
  m_MaskInteraction: 0
--- !u!1 &1199314599700704055
GameObject:
  m_ObjectHideFlags: 0
  m_CorrespondingSourceObject: {fileID: 0}
  m_PrefabInstance: {fileID: 0}
  m_PrefabAsset: {fileID: 0}
  serializedVersion: 6
  m_Component:
  - component: {fileID: 6679413564894514089}
  - component: {fileID: 4428813471777950441}
  m_Layer: 0
  m_Name: Tiles
  m_TagString: Untagged
  m_Icon: {fileID: 0}
  m_NavMeshLayer: 0
  m_StaticEditorFlags: 0
  m_IsActive: 1
--- !u!4 &6679413564894514089
Transform:
  m_ObjectHideFlags: 0
  m_CorrespondingSourceObject: {fileID: 0}
  m_PrefabInstance: {fileID: 0}
  m_PrefabAsset: {fileID: 0}
  m_GameObject: {fileID: 1199314599700704055}
  m_LocalRotation: {x: 0, y: 0, z: 0, w: 1}
  m_LocalPosition: {x: 0, y: 0, z: 0}
  m_LocalScale: {x: 1, y: 1, z: 1}
  m_ConstrainProportionsScale: 0
  m_Children:
  - {fileID: 4464094868968271540}
  m_Father: {fileID: 0}
  m_RootOrder: 0
  m_LocalEulerAnglesHint: {x: 0, y: 0, z: 0}
--- !u!156049354 &4428813471777950441
Grid:
  m_ObjectHideFlags: 0
  m_CorrespondingSourceObject: {fileID: 0}
  m_PrefabInstance: {fileID: 0}
  m_PrefabAsset: {fileID: 0}
  m_GameObject: {fileID: 1199314599700704055}
  m_Enabled: 1
  m_CellSize: {x: 1, y: 1, z: 0}
  m_CellGap: {x: 0, y: 0, z: 0}
  m_CellLayout: 0
  m_CellSwizzle: 0
--- !u!114 &8932929108638774340
MonoBehaviour:
  m_ObjectHideFlags: 0
  m_CorrespondingSourceObject: {fileID: 0}
  m_PrefabInstance: {fileID: 0}
  m_PrefabAsset: {fileID: 0}
  m_GameObject: {fileID: 0}
  m_Enabled: 1
  m_EditorHideFlags: 0
  m_Script: {fileID: 12395, guid: 0000000000000000e000000000000000, type: 0}
  m_Name: Palette Settings
  m_EditorClassIdentifier: 
  cellSizing: 0
  m_TransparencySortMode: 0
  m_TransparencySortAxis: {x: 0, y: 0, z: 1}
